Source,Target,Type,Id,Label,Weight,type
n10,n19272,Directed,e21730,,50.0,0
n10,n9,Directed,e21728,,50.0,0
n1010,n15787,Directed,e21485,,50.0,0
n10153,n11871,Directed,e22413,,50.0,0
n10153,n8701,Directed,e22244,,50.0,0
n1016,n11289,Directed,e21111,,60.0,0
n1016,n5631,Directed,e21278,,50.0,0
n10222,n16865,Directed,e21645,,50.0,0
n10222,n3053,Directed,e21626,,60.0,0
n10222,n7962,Directed,e21625,,50.0,0
n10222,n924,Directed,e21627,,50.0,0
n10255,n14358,Directed,e22682,,50.0,0
n10255,n19272,Directed,e22762,,50.0,0
n10255,n2591,Directed,e22680,,50.0,0
n10255,n3135,Directed,e22681,,50.0,0
n10268,n12699,Directed,e23644,,50.0,0
n1027,n11050,Directed,e23466,,60.0,0
n103,n19426,Directed,e22425,,60.0,0
n10340,n1530,Directed,e22651,,50.0,6
n1038,n961,Directed,e21752,,60.0,0
n1040,n2555,Directed,e21888,,50.0,0
n1043,n19378,Directed,e21544,,50.0,0
n1043,n5419,Directed,e21542,,50.0,0
n1043,n5420,Directed,e21539,,50.0,0
n1043,n7996,Directed,e21181,,50.0,0
n1043,n8005,Directed,e21541,,50.0,0
n10556,n17445,Directed,e21604,,60.0,0
n10556,n4630,Directed,e21603,,50.0,0
n10556,n8527,Directed,e21748,,50.0,0
n10559,n10556,Directed,e21071,,60.0,0
n10559,n19272,Directed,e21112,,50.0,0
n10559,n8527,Directed,e21069,,50.0,0
n1058,n1059,Directed,e21446,,50.0,0
n1058,n14156,Directed,e21447,,50.0,0
n1059,n10434,Directed,e21250,,50.0,0
n1059,n1060,Directed,e22535,,50.0,0
n1059,n13666,Directed,e22537,,60.0,0
n10656,n10653,Directed,e21427,,50.0,0
n10656,n4693,Directed,e21233,,50.0,0
n10697,n2738,Directed,e22934,,50.0,8
n10697,n3732,Directed,e22931,,50.0,8
n10825,n11908,Directed,e21743,,50.0,0
n10825,n3053,Directed,e21745,,60.0,0
n10922,n10979,Directed,e21806,,60.0,0
n10938,n6917,Directed,e21522,,60.0,0
n110,n111,Directed,e23884,,50.0,0
n110,n5373,Directed,e23882,,50.0,0
n110,n7345,Directed,e23880,,50.0,0
n11044,n11042,Directed,e21077,,60.0,0
n11044,n17466,Directed,e21114,,50.0,0
n11044,n17470,Directed,e21075,,50.0,0
n11136,n3265,Directed,e22192,,50.0,0
n11136,n4194,Directed,e22194,,60.0,0
n11164,n11171,Directed,e21153,,60.0,6
n11164,n11251,Directed,e21144,,50.0,6
n11164,n19363,Directed,e21147,,50.0,6
n11164,n4214,Directed,e22105,,50.0,6
n11164,n6393,Directed,e21150,,60.0,6
n1117,n18719,Directed,e21893,,60.0,0
n11171,n11251,Directed,e22621,,50.0,6
n1118,n1049,Directed,e21092,,50.0,0
n1118,n14190,Directed,e21096,,50.0,0
n1118,n15315,Directed,e21094,,60.0,0
n1118,n16623,Directed,e21098,,50.0,0
n1118,n3135,Directed,e21093,,60.0,0
n1126,n16359,Directed,e21879,,60.0,0
n1126,n19403,Directed,e22073,,50.0,0
n1126,n3199,Directed,e21877,,60.0,0
n117,n17199,Directed,e23659,,50.0,0
n117,n17824,Directed,e23657,,50.0,0
n117,n4024,Directed,e23578,,50.0,0
n117,n8200,Directed,e23660,,50.0,0
n11706,n1403,Directed,e23519,,50.0,8
n11729,n17286,Directed,e23075,,50.0,8
n11729,n4986,Directed,e23078,,60.0,8
n11729,n5979,Directed,e23072,,50.0,8
n1173,n14242,Directed,e21139,,70.0,0
n1173,n14271,Directed,e21141,,110.0,0
n1173,n15281,Directed,e21228,,80.0,0
n1173,n17910,Directed,e21230,,60.0,0
n1173,n19250,Directed,e21469,,60.0,0
n1173,n3863,Directed,e21226,,70.0,0
n1173,n4630,Directed,e21508,,60.0,0
n1173,n5579,Directed,e21470,,50.0,0
n11760,n11366,Directed,e23124,,50.0,8
n11760,n11961,Directed,e23127,,50.0,8
n11760,n18968,Directed,e23130,,50.0,8
n11760,n5885,Directed,e23044,,50.0,6
n11846,n11841,Directed,e23682,,50.0,0
n11871,n12408,Directed,e22090,,50.0,6
n11871,n4822,Directed,e22622,,50.0,6
n11871,n7969,Directed,e22625,,50.0,6
n11873,n11871,Directed,e23313,,50.0,7
n11873,n12408,Directed,e23319,,50.0,7
n11873,n19485,Directed,e23315,,50.0,7
n11873,n9156,Directed,e23317,,50.0,7
n11893,n11894,Directed,e22945,,50.0,0
n11893,n19467,Directed,e23133,,50.0,8
n11893,n7598,Directed,e22947,,50.0,0
n11893,n7600,Directed,e22946,,60.0,0
n11908,n15789,Directed,e23806,,50.0,6
n11908,n4024,Directed,e23803,,50.0,6
n11920,n8729,Directed,e23033,,60.0,3
n11955,n12915,Directed,e21631,,50.0,0
n11955,n15097,Directed,e21629,,50.0,0
n11955,n4440,Directed,e21628,,50.0,0
n12030,n10194,Directed,e22553,,60.0,0
n12030,n12103,Directed,e22549,,60.0,0
n12030,n16357,Directed,e22551,,50.0,0
n12030,n19437,Directed,e22547,,50.0,0
n12030,n3507,Directed,e22673,,50.0,0
n12103,n7199,Directed,e22893,,60.0,6
n12146,n19374,Directed,e21388,,50.0,0
n12164,n11566,Directed,e21740,,50.0,0
n12164,n13729,Directed,e21741,,50.0,0
n1224,n2575,Directed,e21164,,50.0,0
n1224,n8326,Directed,e21061,,50.0,0
n12312,n11067,Directed,e23830,,50.0,6
n12312,n11251,Directed,e23833,,50.0,6
n12312,n15097,Directed,e22785,,60.0,6
n12312,n6188,Directed,e23827,,50.0,6
n12312,n6393,Directed,e22784,,50.0,6
n12312,n9368,Directed,e22788,,60.0,6
n12351,n2764,Directed,e22321,,60.0,0
n12351,n3135,Directed,e22388,,50.0,0
n12408,n11871,Directed,e22153,,60.0,8
n12408,n14946,Directed,e22937,,50.0,8
n12408,n6924,Directed,e22150,,50.0,8
n1251,n11273,Directed,e22669,,60.0,0
n1251,n3216,Directed,e22706,,50.0,0
n1251,n6800,Directed,e22665,,60.0,0
n1251,n6846,Directed,e22664,,60.0,0
n1251,n9130,Directed,e22667,,60.0,0
n126,n124,Directed,e22558,,50.0,0
n126,n12643,Directed,e22557,,50.0,0
n126,n19433,Directed,e22520,,60.0,0
n126,n2715,Directed,e22555,,50.0,0
n12606,n11566,Directed,e23421,,60.0,0
n12606,n11828,Directed,e23823,,50.0,6
n12606,n12913,Directed,e23821,,50.0,6
n12606,n1907,Directed,e23422,,110.0,0
n12606,n2890,Directed,e23463,,50.0,0
n12606,n3712,Directed,e23822,,50.0,6
n12606,n6308,Directed,e23815,,50.0,6
n12664,n12573,Directed,e22972,,50.0,0
n12664,n12699,Directed,e22966,,50.0,0
n12664,n14792,Directed,e22968,,50.0,0
n12664,n17574,Directed,e22974,,50.0,0
n12664,n19459,Directed,e22970,,50.0,0
n12664,n6011,Directed,e22967,,50.0,0
n127,n128,Directed,e21025,,50.0,0
n127,n1936,Directed,e21023,,50.0,0
n127,n2779,Directed,e20957,,60.0,0
n127,n8328,Directed,e21027,,50.0,0
n12733,n12929,Directed,e22507,,50.0,0
n12733,n943,Directed,e22505,,50.0,0
n1274,n12097,Directed,e23540,,50.0,6
n1274,n12518,Directed,e23543,,50.0,6
n1274,n12913,Directed,e23539,,50.0,6
n1274,n3712,Directed,e23538,,50.0,6
n12752,n1545,Directed,e22357,,50.0,0
n12752,n19431,Directed,e22509,,50.0,0
n12752,n19432,Directed,e22511,,50.0,0
n12772,n19392,Directed,e21836,,50.0,0
n12772,n4822,Directed,e21835,,50.0,0
n12784,n11962,Directed,e23268,,50.0,3
n12784,n19480,Directed,e23266,,50.0,3
n12806,n19462,Directed,e23005,,50.0,0
n12806,n3387,Directed,e23003,,50.0,0
n12806,n9625,Directed,e23069,,50.0,0
n1281,n19401,Directed,e22055,,60.0,0
n1281,n19407,Directed,e22170,,50.0,0
n1281,n4970,Directed,e22026,,130.0,0
n1281,n6004,Directed,e22028,,90.0,0
n1281,n6591,Directed,e22024,,80.0,0
n12886,n18536,Directed,e23038,,60.0,7
n12886,n19503,Directed,e23800,,50.0,7
n12899,n135,Directed,e21672,,50.0,0
n12899,n16097,Directed,e21670,,50.0,0
n12899,n4237,Directed,e21668,,50.0,0
n13067,n11566,Directed,e21373,,50.0,0
n13067,n13068,Directed,e21374,,50.0,0
n13067,n17517,Directed,e21370,,60.0,0
n13067,n19373,Directed,e21371,,60.0,0
n13092,n11729,Directed,e22493,,50.0,0
n13092,n3559,Directed,e22492,,80.0,0
n13117,n13134,Directed,e21933,,70.0,0
n13117,n14973,Directed,e21884,,100.0,0
n13117,n19405,Directed,e22132,,50.0,0
n13182,n11566,Directed,e21270,,60.0,0
n13182,n12164,Directed,e21497,,50.0,0
n13182,n13729,Directed,e21268,,50.0,0
n13182,n15223,Directed,e21495,,50.0,0
n13182,n4024,Directed,e21494,,50.0,0
n1322,n10327,Directed,e21770,,50.0,0
n13271,n13370,Directed,e23290,,50.0,8
n13271,n2205,Directed,e23284,,50.0,8
n13271,n2935,Directed,e23287,,50.0,8
n13298,n19477,Directed,e23795,,50.0,0
n13311,n12525,Directed,e23624,,50.0,0
n13311,n1364,Directed,e23627,,50.0,0
n13311,n14381,Directed,e23630,,50.0,0
n13311,n17042,Directed,e23625,,50.0,0
n13311,n17707,Directed,e23628,,50.0,0
n13363,n13077,Directed,e22693,,50.0,0
n13363,n16281,Directed,e22702,,50.0,0
n13363,n19300,Directed,e22701,,50.0,0
n13363,n19444,Directed,e22695,,50.0,0
n13363,n19445,Directed,e22697,,50.0,0
n13363,n19446,Directed,e22699,,50.0,0
n13365,n7962,Directed,e21414,,50.0,0
n13365,n8741,Directed,e21416,,50.0,0
n13365,n924,Directed,e21418,,60.0,0
n13381,n5007,Directed,e22675,,50.0,0
n13381,n5847,Directed,e22672,,60.0,0
n134,n12899,Directed,e21558,,60.0,0
n13421,n12525,Directed,e23481,,50.0,0
n13421,n13424,Directed,e23598,,50.0,0
n13489,n16911,Directed,e23560,,50.0,0
n13489,n17871,Directed,e23394,,60.0,0
n13489,n6785,Directed,e23392,,60.0,0
n13489,n6786,Directed,e23558,,50.0,0
n13489,n8474,Directed,e23390,,60.0,0
n1350,n11545,Directed,e21871,,50.0,0
n13548,n5419,Directed,e21987,,50.0,0
n13548,n5420,Directed,e21984,,50.0,0
n13548,n6770,Directed,e22102,,50.0,0
n13548,n6771,Directed,e21985,,60.0,0
n13548,n9255,Directed,e22100,,50.0,0
n13587,n5847,Directed,e22199,,60.0,0
n1363,n1545,Directed,e22954,,60.0,0
n1363,n1573,Directed,e22952,,60.0,0
n1363,n2068,Directed,e22955,,50.0,0
n1363,n2333,Directed,e22957,,50.0,0
n1363,n3532,Directed,e22950,,50.0,0
n1365,n15876,Directed,e21561,,60.0,0
n1365,n3216,Directed,e21578,,50.0,0
n1365,n6846,Directed,e21580,,50.0,0
n13652,n13666,Directed,e21525,,50.0,0
n13665,n16139,Directed,e20892,,60.0,0
n13665,n6011,Directed,e21000,,50.0,0
n13666,n13652,Directed,e22779,,80.0,0
n13666,n13653,Directed,e22780,,50.0,0
n13666,n5847,Directed,e22903,,70.0,0
n13666,n9535,Directed,e22901,,60.0,0
n13729,n16648,Directed,e22484,,50.0,8
n13729,n18373,Directed,e22487,,50.0,8
n13729,n18384,Directed,e22481,,50.0,8
n13729,n19455,Directed,e22897,,50.0,6
n13729,n924,Directed,e22900,,50.0,6
n13765,n15281,Directed,e21714,,50.0,0
n1380,n11726,Directed,e21917,,50.0,0
n13840,n11871,Directed,e22214,,50.0,0
n13840,n1793,Directed,e22271,,50.0,0
n13840,n19410,Directed,e22210,,50.0,0
n13840,n4822,Directed,e22209,,50.0,0
n13840,n8973,Directed,e22212,,50.0,0
n139,n12545,Directed,e21020,,50.0,0
n139,n14156,Directed,e21018,,50.0,0
n139,n19334,Directed,e21016,,50.0,0
n139,n788,Directed,e21019,,50.0,0
n13910,n13985,Directed,e22503,,50.0,0
n13910,n4839,Directed,e22501,,50.0,0
n13969,n18743,Directed,e20991,,50.0,0
n13969,n18785,Directed,e20993,,50.0,0
n13969,n4562,Directed,e20989,,50.0,0
n13993,n13729,Directed,e23110,,60.0,0
n13993,n13991,Directed,e23111,,60.0,0
n13993,n15751,Directed,e23108,,50.0,0
n13993,n16281,Directed,e23184,,50.0,0
n13993,n1907,Directed,e23105,,60.0,0
n13993,n993,Directed,e23106,,60.0,0
n14008,n11273,Directed,e23604,,50.0,0
n14008,n19498,Directed,e23637,,50.0,0
n1408,n13440,Directed,e21959,,90.0,0
n14104,n9360,Directed,e22058,,50.0,0
n14190,n12326,Directed,e22879,,50.0,8
n14209,n18589,Directed,e23162,,60.0,0
n14209,n2996,Directed,e23163,,80.0,0
n14209,n3476,Directed,e23161,,80.0,0
n14209,n4024,Directed,e23245,,60.0,0
n14209,n6043,Directed,e23473,,50.0,0
n14242,n12913,Directed,e23053,,50.0,6
n14242,n3712,Directed,e23052,,50.0,6
n143,n142,Directed,e22060,,60.0,0
n143,n17071,Directed,e22061,,50.0,0
n143,n4237,Directed,e22059,,50.0,0
n14308,n19473,Directed,e23165,,50.0,8
n14326,n13729,Directed,e23232,,50.0,0
n14326,n14331,Directed,e23233,,60.0,0
n14326,n14332,Directed,e23228,,60.0,0
n14326,n3993,Directed,e23230,,60.0,0
n14326,n4024,Directed,e23231,,60.0,0
n14394,n14393,Directed,e22343,,50.0,0
n14394,n15175,Directed,e22345,,60.0,0
n144,n143,Directed,e21203,,50.0,0
n14424,n2395,Directed,e21968,,50.0,0
n14471,n18429,Directed,e21178,,50.0,0
n14471,n4698,Directed,e21551,,50.0,0
n14480,n12525,Directed,e23479,,50.0,0
n14480,n14483,Directed,e23477,,50.0,0
n14480,n16309,Directed,e23411,,50.0,0
n145,n142,Directed,e21404,,50.0,0
n14516,n3135,Directed,e23774,,50.0,0
n14516,n6593,Directed,e23776,,50.0,0
n14516,n6601,Directed,e23770,,50.0,0
n14516,n7914,Directed,e23768,,50.0,0
n14516,n7923,Directed,e23772,,50.0,0
n14516,n89,Directed,e23775,,50.0,0
n14542,n11566,Directed,e23873,,50.0,0
n14542,n16139,Directed,e23872,,50.0,0
n14542,n4024,Directed,e23874,,50.0,0
n14584,n19420,Directed,e22395,,50.0,0
n14584,n38,Directed,e22398,,60.0,0
n14584,n6011,Directed,e22397,,50.0,0
n1459,n18799,Directed,e23563,,50.0,0
n14633,n11438,Directed,e22238,,60.0,0
n14633,n12542,Directed,e22235,,50.0,0
n14633,n16763,Directed,e22237,,90.0,0
n14633,n19383,Directed,e21721,,70.0,0
n14633,n4685,Directed,e21723,,120.0,0
n14633,n6921,Directed,e22051,,100.0,0
n14633,n7395,Directed,e22258,,60.0,0
n1474,n11214,Directed,e21330,,50.0,0
n1474,n14352,Directed,e21379,,50.0,0
n1474,n17242,Directed,e21332,,50.0,0
n14792,n13496,Directed,e23407,,50.0,0
n14792,n5215,Directed,e23791,,50.0,0
n14792,n933,Directed,e23789,,50.0,0
n14799,n17021,Directed,e22362,,60.0,0
n14799,n19416,Directed,e22363,,60.0,0
n14837,n11289,Directed,e23363,,50.0,6
n14837,n15575,Directed,e23366,,50.0,6
n14837,n19488,Directed,e23360,,50.0,6
n14837,n4630,Directed,e23359,,50.0,6
n14920,n12497,Directed,e22179,,50.0,0
n14920,n18243,Directed,e22177,,50.0,0
n14920,n6021,Directed,e22180,,60.0,0
n15081,n15078,Directed,e21326,,50.0,0
n15095,n14636,Directed,e23620,,50.0,0
n15095,n14637,Directed,e23622,,50.0,0
n15097,n11251,Directed,e23669,,50.0,6
n15097,n12237,Directed,e23667,,50.0,6
n15097,n4440,Directed,e23668,,50.0,6
n15097,n6861,Directed,e23670,,50.0,6
n15097,n9183,Directed,e23664,,50.0,6
n15148,n15152,Directed,e23517,,50.0,0
n15148,n9809,Directed,e23515,,50.0,0
n15175,n12676,Directed,e22256,,70.0,0
n15175,n1674,Directed,e21907,,120.0,0
n15175,n19166,Directed,e22053,,60.0,0
n15175,n19393,Directed,e21905,,60.0,0
n15175,n19394,Directed,e21909,,70.0,0
n15175,n2856,Directed,e23565,,50.0,0
n15175,n5015,Directed,e22048,,60.0,0
n15182,n8405,Directed,e21830,,50.0,0
n15296,n12895,Directed,e23711,,50.0,0
n153,n10904,Directed,e22273,,50.0,0
n153,n11289,Directed,e22280,,50.0,0
n153,n3583,Directed,e22278,,50.0,0
n153,n3587,Directed,e22276,,50.0,0
n153,n6256,Directed,e22275,,50.0,0
n153,n9970,Directed,e22189,,50.0,0
n15314,n11817,Directed,e21787,,60.0,0
n15314,n6086,Directed,e21789,,60.0,0
n15328,n6539,Directed,e23642,,50.0,0
n15328,n8912,Directed,e23584,,50.0,0
n15346,n16894,Directed,e22631,,50.0,6
n15346,n17768,Directed,e22634,,50.0,6
n1545,n14956,Directed,e22601,,50.0,6
n15450,n10255,Directed,e21815,,60.0,0
n15450,n19389,Directed,e21813,,60.0,0
n15450,n3135,Directed,e21856,,50.0,0
n15461,n17641,Directed,e23848,,60.0,0
n15461,n19504,Directed,e23844,,50.0,0
n15461,n19505,Directed,e23846,,50.0,0
n15461,n19506,Directed,e23850,,60.0,0
n15461,n19507,Directed,e23852,,50.0,0
n15730,n10340,Directed,e21041,,50.0,0
n15730,n4822,Directed,e21128,,50.0,0
n15733,n17248,Directed,e22227,,60.0,0
n15733,n7515,Directed,e22225,,60.0,0
n15763,n13974,Directed,e22525,,70.0,0
n15763,n19434,Directed,e22527,,80.0,0
n15763,n19435,Directed,e22540,,50.0,0
n15763,n19436,Directed,e22542,,80.0,0
n15763,n19443,Directed,e22629,,70.0,0
n15812,n15813,Directed,e23236,,50.0,0
n15812,n8411,Directed,e23579,,50.0,0
n1585,n1545,Directed,e20975,,50.0,0
n1585,n1584,Directed,e20977,,50.0,0
n159,n17196,Directed,e21224,,70.0,0
n15913,n12552,Directed,e23725,,50.0,8
n15913,n3143,Directed,e23722,,50.0,8
n15944,n19408,Directed,e22172,,50.0,0
n15944,n3059,Directed,e22174,,50.0,0
n16024,n5510,Directed,e21773,,50.0,0
n16024,n6086,Directed,e21775,,50.0,0
n16090,n17280,Directed,e21989,,50.0,0
n16134,n1341,Directed,e22828,,50.0,0
n16134,n19449,Directed,e22825,,50.0,0
n16134,n4024,Directed,e23181,,50.0,0
n16134,n7937,Directed,e22827,,50.0,0
n16150,n9793,Directed,e23612,,50.0,7
n16205,n2632,Directed,e22385,,50.0,0
n163,n3319,Directed,e21293,,60.0,0
n163,n4693,Directed,e21455,,50.0,0
n16325,n10951,Directed,e23084,,60.0,0
n16325,n13359,Directed,e23085,,50.0,0
n16325,n16787,Directed,e23251,,50.0,0
n16325,n18687,Directed,e23253,,50.0,0
n16325,n19250,Directed,e23083,,60.0,0
n16325,n19464,Directed,e23087,,50.0,0
n16417,n19385,Directed,e21735,,50.0,0
n16417,n3862,Directed,e21587,,60.0,0
n16417,n7622,Directed,e21589,,70.0,0
n16421,n17828,Directed,e21649,,50.0,0
n16421,n4899,Directed,e21610,,60.0,0
n16421,n8996,Directed,e21608,,60.0,0
n16427,n11171,Directed,e21350,,50.0,0
n16427,n2725,Directed,e21344,,60.0,0
n16427,n2766,Directed,e21348,,60.0,0
n16427,n2768,Directed,e21346,,60.0,0
n16440,n19381,Directed,e21643,,60.0,0
n16466,n15320,Directed,e21314,,50.0,0
n16466,n16365,Directed,e21318,,50.0,0
n16527,n10632,Directed,e21622,,60.0,0
n16527,n10951,Directed,e21841,,60.0,0
n16527,n16427,Directed,e21938,,50.0,0
n16527,n1875,Directed,e21620,,50.0,0
n16527,n19250,Directed,e21689,,50.0,0
n16527,n6930,Directed,e21843,,50.0,0
n16717,n12408,Directed,e23781,,50.0,0
n16717,n16722,Directed,e23730,,70.0,0
n16717,n4771,Directed,e23779,,50.0,0
n16770,n14964,Directed,e22302,,50.0,0
n16770,n17871,Directed,e22300,,50.0,0
n16809,n19369,Directed,e21296,,60.0,0
n16824,n16829,Directed,e22570,,60.0,0
n16824,n19439,Directed,e22576,,50.0,0
n16824,n4510,Directed,e22574,,60.0,0
n16824,n4511,Directed,e22572,,50.0,0
n16926,n19399,Directed,e21966,,60.0,0
n16959,n12408,Directed,e22926,,60.0,8
n16959,n14358,Directed,e22920,,60.0,8
n16959,n19441,Directed,e23168,,50.0,8
n16959,n924,Directed,e22930,,60.0,8
n16959,n9319,Directed,e22927,,60.0,8
n16959,n9379,Directed,e22923,,60.0,8
n16995,n16139,Directed,e21822,,60.0,0
n170,n14267,Directed,e22069,,50.0,0
n170,n18482,Directed,e22071,,60.0,0
n170,n19402,Directed,e22065,,50.0,0
n170,n19409,Directed,e22181,,50.0,0
n170,n6838,Directed,e22067,,60.0,0
n17005,n17099,Directed,e22186,,50.0,0
n17005,n5872,Directed,e22184,,50.0,0
n17005,n9688,Directed,e22165,,50.0,0
n17035,n19427,Directed,e22454,,50.0,0
n17035,n19428,Directed,e22456,,50.0,0
n17035,n4169,Directed,e22453,,50.0,0
n17035,n9450,Directed,e22451,,50.0,0
n171,n13823,Directed,e22500,,50.0,0
n171,n177,Directed,e22522,,50.0,0
n17172,n13133,Directed,e23387,,50.0,0
n17172,n17170,Directed,e23385,,60.0,0
n17176,n12025,Directed,e23273,,50.0,3
n17176,n9278,Directed,e23271,,50.0,3
n1726,n4630,Directed,e22078,,60.0,6
n17307,n12525,Directed,e21865,,60.0,0
n17307,n17285,Directed,e21867,,60.0,0
n17394,n14157,Directed,e23377,,60.0,0
n174,n16287,Directed,e21433,,50.0,0
n17455,n1197,Directed,e23220,,50.0,0
n17455,n1380,Directed,e23114,,50.0,0
n17455,n19466,Directed,e23115,,50.0,0
n17455,n6526,Directed,e23117,,50.0,0
n17464,n11726,Directed,e22761,,50.0,0
n17464,n12284,Directed,e22679,,110.0,0
n17464,n19447,Directed,e22703,,50.0,0
n17464,n19451,Directed,e22861,,60.0,0
n17464,n4643,Directed,e22705,,60.0,0
n17466,n11044,Directed,e21205,,60.0,0
n17466,n17470,Directed,e21206,,60.0,0
n17517,n19468,Directed,e23138,,50.0,8
n17538,n6026,Directed,e23601,,50.0,0
n17551,n11540,Directed,e22984,,60.0,0
n17551,n16846,Directed,e22994,,50.0,0
n17551,n19460,Directed,e22986,,50.0,0
n17551,n19461,Directed,e22995,,50.0,0
n17551,n5847,Directed,e22983,,60.0,0
n17551,n7618,Directed,e22997,,50.0,0
n17554,n16846,Directed,e21679,,50.0,0
n17554,n17551,Directed,e21681,,50.0,0
n17554,n19382,Directed,e21677,,50.0,0
n17598,n11251,Directed,e23442,,50.0,6
n17598,n15021,Directed,e23434,,50.0,6
n17598,n16467,Directed,e23437,,50.0,6
n17598,n7681,Directed,e23440,,50.0,6
n17690,n12699,Directed,e23219,,60.0,0
n17690,n1347,Directed,e22775,,60.0,0
n17690,n13738,Directed,e22777,,80.0,0
n17690,n18303,Directed,e23460,,50.0,0
n17690,n19484,Directed,e23305,,50.0,0
n17690,n3862,Directed,e23462,,50.0,0
n17690,n5579,Directed,e22778,,80.0,0
n17701,n18968,Directed,e21851,,50.0,0
n17701,n19009,Directed,e21854,,50.0,0
n17701,n19390,Directed,e21817,,60.0,0
n17701,n4624,Directed,e21853,,50.0,0
n17731,n12518,Directed,e23787,,50.0,0
n17731,n17735,Directed,e23783,,60.0,0
n17731,n19502,Directed,e23785,,50.0,0
n17768,n16894,Directed,e23824,,50.0,6
n178,n1164,Directed,e22979,,60.0,0
n178,n209,Directed,e23240,,50.0,0
n178,n3408,Directed,e22981,,60.0,0
n178,n6465,Directed,e22977,,50.0,0
n17839,n17830,Directed,e23396,,60.0,0
n17839,n18927,Directed,e23398,,50.0,0
n17839,n3053,Directed,e23397,,50.0,0
n17839,n924,Directed,e23400,,60.0,0
n17854,n16456,Directed,e21650,,50.0,0
n17854,n2551,Directed,e21616,,60.0,0
n17856,n19397,Directed,e21950,,50.0,0
n17856,n9907,Directed,e21948,,50.0,0
n17857,n18879,Directed,e21694,,80.0,0
n17857,n8554,Directed,e21824,,50.0,0
n17884,n11817,Directed,e23675,,50.0,0
n17884,n12525,Directed,e23676,,50.0,0
n17884,n1402,Directed,e23679,,50.0,0
n17884,n17844,Directed,e23677,,50.0,0
n17884,n19490,Directed,e23419,,50.0,0
n17884,n8186,Directed,e23673,,50.0,0
n18134,n14956,Directed,e22821,,50.0,0
n18134,n18136,Directed,e22822,,60.0,0
n18134,n18137,Directed,e22823,,50.0,0
n18134,n19474,Directed,e23200,,50.0,0
n18137,n11319,Directed,e22818,,60.0,0
n18137,n14956,Directed,e23748,,50.0,6
n18137,n17871,Directed,e22820,,50.0,0
n18137,n18134,Directed,e22816,,60.0,0
n18137,n18136,Directed,e22814,,60.0,0
n18137,n543,Directed,e22810,,60.0,0
n18137,n8456,Directed,e23247,,50.0,0
n18137,n9784,Directed,e22812,,60.0,0
n18205,n19448,Directed,e22769,,50.0,3
n18242,n13738,Directed,e21276,,50.0,0
n18326,n13625,Directed,e22684,,60.0,0
n18403,n2401,Directed,e22203,,50.0,0
n18403,n9712,Directed,e22205,,50.0,0
n1846,n11251,Directed,e23453,,50.0,6
n1846,n12913,Directed,e23451,,50.0,6
n1846,n15097,Directed,e23452,,50.0,6
n1846,n3712,Directed,e23450,,50.0,6
n1846,n9866,Directed,e23454,,50.0,6
n18635,n10743,Directed,e22793,,60.0,6
n18635,n12186,Directed,e22790,,50.0,6
n18635,n12265,Directed,e23457,,50.0,6
n18635,n14156,Directed,e23455,,50.0,6
n18635,n9319,Directed,e23456,,50.0,6
n18649,n16427,Directed,e21257,,60.0,0
n18649,n19368,Directed,e21261,,50.0,0
n18649,n4643,Directed,e21259,,50.0,0
n18678,n14585,Directed,e23343,,50.0,8
n18678,n18968,Directed,e23339,,50.0,8
n18678,n8715,Directed,e23340,,50.0,8
n187,n1737,Directed,e23587,,50.0,0
n187,n19501,Directed,e23766,,50.0,0
n187,n2291,Directed,e23591,,50.0,0
n187,n5847,Directed,e23590,,60.0,0
n187,n6393,Directed,e23589,,60.0,0
n18716,n19421,Directed,e22399,,50.0,0
n18716,n19430,Directed,e22497,,50.0,0
n18716,n971,Directed,e22337,,70.0,0
n18743,n18733,Directed,e22713,,60.0,8
n18743,n766,Directed,e23281,,50.0,8
n18752,n11171,Directed,e23026,,60.0,0
n18752,n18743,Directed,e23027,,50.0,0
n18752,n19463,Directed,e23030,,50.0,0
n18752,n2328,Directed,e23028,,50.0,0
n18752,n4822,Directed,e23119,,50.0,0
n18785,n18730,Directed,e22848,,50.0,0
n18785,n18743,Directed,e22850,,50.0,0
n18785,n4169,Directed,e23015,,50.0,0
n18785,n5847,Directed,e22847,,60.0,0
n18796,n1197,Directed,e23238,,50.0,0
n18796,n17868,Directed,e22707,,60.0,0
n18796,n18799,Directed,e22515,,100.0,0
n18796,n18901,Directed,e22513,,80.0,0
n18796,n2717,Directed,e22514,,90.0,0
n18799,n17776,Directed,e22796,,50.0,0
n18799,n18077,Directed,e22800,,60.0,0
n18799,n18796,Directed,e22804,,50.0,0
n18799,n2449,Directed,e22802,,50.0,0
n18799,n8575,Directed,e22798,,60.0,0
n18901,n10235,Directed,e22742,,50.0,8
n1892,n10979,Directed,e21762,,60.0,0
n1892,n4643,Directed,e21761,,50.0,0
n1892,n8221,Directed,e21764,,60.0,0
n18930,n13538,Directed,e23552,,50.0,0
n18930,n13542,Directed,e23556,,50.0,0
n18930,n1703,Directed,e23554,,60.0,0
n18930,n18935,Directed,e23550,,50.0,0
n18930,n3053,Directed,e23571,,50.0,0
n18968,n11736,Directed,e22043,,50.0,6
n18968,n11760,Directed,e22034,,50.0,6
n18968,n12913,Directed,e22037,,50.0,6
n18968,n15681,Directed,e22604,,50.0,6
n18968,n3712,Directed,e22040,,50.0,6
n18974,n10670,Directed,e21298,,50.0,0
n18974,n1578,Directed,e21086,,50.0,0
n18974,n4680,Directed,e21085,,50.0,0
n18994,n19160,Directed,e21090,,50.0,0
n19215,n38,Directed,e23447,,50.0,6
n19215,n924,Directed,e23443,,50.0,6
n19215,n9837,Directed,e23444,,50.0,6
n19272,n14358,Directed,e23750,,50.0,6
n19272,n18701,Directed,e22656,,60.0,6
n19272,n19442,Directed,e22655,,60.0,6
n19272,n3712,Directed,e23749,,50.0,6
n19309,n15034,Directed,e21881,,50.0,0
n19309,n17021,Directed,e22491,,50.0,0
n19360,n2738,Directed,e21710,,80.0,0
n19360,n509,Directed,e21712,,110.0,0
n19360,n6087,Directed,e22109,,50.0,0
n19360,n9368,Directed,e21734,,100.0,0
n19363,n11900,Directed,e22757,,50.0,8
n19363,n17493,Directed,e22754,,50.0,8
n19435,n13974,Directed,e23574,,60.0,0
n19435,n15106,Directed,e23662,,60.0,0
n19435,n15762,Directed,e23686,,50.0,0
n19435,n15849,Directed,e23684,,50.0,0
n19435,n1790,Directed,e23575,,60.0,0
n19435,n5018,Directed,e23687,,50.0,0
n19442,n13729,Directed,e23326,,50.0,8
n19442,n14156,Directed,e23335,,50.0,8
n19442,n14358,Directed,e23338,,50.0,8
n19442,n15175,Directed,e23327,,50.0,8
n19442,n19272,Directed,e23330,,50.0,8
n19442,n2591,Directed,e23332,,50.0,8
n2010,n2048,Directed,e22427,,50.0,0
n2010,n3053,Directed,e22309,,50.0,0
n2010,n3766,Directed,e22428,,50.0,0
n2010,n8527,Directed,e22308,,50.0,0
n204,n207,Directed,e21684,,50.0,0
n2048,n11320,Directed,e22251,,60.0,6
n2048,n12913,Directed,e22607,,50.0,6
n2048,n3712,Directed,e22254,,60.0,6
n2068,n12408,Directed,e23475,,50.0,0
n2068,n9319,Directed,e23476,,50.0,0
n2082,n14156,Directed,e20968,,50.0,0
n2082,n2313,Directed,e20895,,60.0,0
n2145,n19458,Directed,e22942,,60.0,0
n2145,n347,Directed,e22944,,60.0,0
n2145,n5863,Directed,e22963,,50.0,0
n2156,n13738,Directed,e23311,,50.0,0
n2156,n5579,Directed,e23310,,50.0,0
n2156,n6026,Directed,e23309,,50.0,0
n22,n10563,Directed,e21535,,60.0,0
n22,n5347,Directed,e21537,,60.0,0
n220,n15102,Directed,e22007,,50.0,0
n220,n19411,Directed,e22229,,50.0,0
n220,n2058,Directed,e22005,,60.0,0
n2236,n12525,Directed,e22469,,60.0,0
n2236,n19429,Directed,e22461,,50.0,0
n2236,n5068,Directed,e22463,,50.0,0
n2236,n5892,Directed,e22465,,50.0,0
n2236,n8025,Directed,e22467,,60.0,0
n2236,n8117,Directed,e22459,,50.0,0
n226,n14758,Directed,e21002,,50.0,0
n226,n4680,Directed,e21004,,50.0,0
n226,n8005,Directed,e21006,,50.0,0
n233,n18863,Directed,e23009,,60.0,0
n233,n19487,Directed,e23347,,50.0,0
n233,n4292,Directed,e23581,,50.0,0
n233,n4293,Directed,e23011,,50.0,0
n233,n4805,Directed,e23000,,50.0,0
n233,n4808,Directed,e23013,,60.0,0
n233,n8609,Directed,e23007,,70.0,0
n2380,n6921,Directed,e22479,,60.0,0
n241,n11736,Directed,e23607,,50.0,0
n241,n17910,Directed,e23606,,50.0,0
n2449,n18799,Directed,e23758,,50.0,6
n246,n10386,Directed,e21288,,50.0,0
n246,n247,Directed,e21287,,50.0,0
n247,n10386,Directed,e21121,,50.0,0
n247,n18306,Directed,e21066,,50.0,0
n2506,n13148,Directed,e22589,,50.0,6
n2555,n1274,Directed,e22432,,60.0,0
n2555,n13768,Directed,e22430,,50.0,0
n2555,n16427,Directed,e22437,,50.0,0
n2555,n18909,Directed,e22434,,50.0,0
n2555,n2766,Directed,e22436,,50.0,0
n2575,n11320,Directed,e23834,,50.0,6
n2575,n12913,Directed,e23835,,50.0,6
n2575,n2048,Directed,e23048,,60.0,6
n2575,n3712,Directed,e23836,,50.0,6
n26,n14579,Directed,e21549,,50.0,0
n26,n3892,Directed,e21513,,50.0,0
n26,n8721,Directed,e21547,,50.0,0
n264,n253,Directed,e21705,,50.0,0
n2666,n12782,Directed,e22686,,50.0,0
n2666,n8929,Directed,e22688,,50.0,0
n2727,n16444,Directed,e21998,,120.0,0
n2730,n18918,Directed,e21793,,80.0,0
n2730,n3854,Directed,e21791,,70.0,0
n274,n1149,Directed,e22470,,50.0,0
n274,n958,Directed,e22389,,60.0,0
n275,n19425,Directed,e22414,,50.0,0
n275,n8492,Directed,e22377,,50.0,0
n2761,n7222,Directed,e21863,,60.0,0
n2761,n8195,Directed,e21861,,50.0,0
n2862,n14399,Directed,e21195,,70.0,0
n2862,n15820,Directed,e21555,,80.0,0
n2862,n17445,Directed,e21448,,60.0,0
n2862,n19250,Directed,e21193,,60.0,0
n2862,n2044,Directed,e21190,,70.0,0
n2862,n2048,Directed,e21192,,120.0,0
n2862,n2834,Directed,e21553,,60.0,0
n2862,n4624,Directed,e21450,,100.0,0
n2878,n2874,Directed,e22402,,60.0,0
n2878,n9172,Directed,e22502,,50.0,0
n290,n14156,Directed,e20867,,70.0,0
n290,n14956,Directed,e20865,,50.0,0
n290,n292,Directed,e21008,,60.0,0
n290,n295,Directed,e20921,,50.0,0
n290,n5847,Directed,e20934,,60.0,0
n290,n6393,Directed,e20869,,70.0,0
n290,n8806,Directed,e20936,,60.0,0
n299,n13043,Directed,e21675,,50.0,0
n30,n11726,Directed,e23778,,50.0,0
n3000,n12070,Directed,e22583,,50.0,0
n3000,n13271,Directed,e22585,,50.0,0
n3000,n16255,Directed,e22582,,50.0,0
n3000,n2023,Directed,e22587,,50.0,0
n3000,n8488,Directed,e22580,,50.0,0
n3000,n9445,Directed,e22586,,50.0,0
n301,n11581,Directed,e23793,,50.0,0
n3024,n12351,Directed,e21299,,50.0,0
n3024,n1640,Directed,e21301,,50.0,0
n3024,n2764,Directed,e21304,,50.0,0
n3024,n2954,Directed,e21302,,50.0,0
n3029,n13678,Directed,e21528,,50.0,0
n3029,n19380,Directed,e21585,,50.0,0
n3029,n3526,Directed,e21532,,50.0,0
n3029,n4440,Directed,e21530,,50.0,0
n305,n14156,Directed,e20940,,50.0,0
n3053,n11828,Directed,e23428,,50.0,6
n3053,n18230,Directed,e23425,,50.0,6
n3053,n18927,Directed,e23431,,50.0,6
n3135,n12237,Directed,e23060,,50.0,6
n3135,n4440,Directed,e23057,,50.0,6
n3245,n11871,Directed,e21940,,60.0,0
n3245,n12344,Directed,e21942,,50.0,0
n3245,n12408,Directed,e21944,,60.0,0
n327,n17804,Directed,e21662,,50.0,0
n327,n4169,Directed,e21377,,70.0,0
n327,n8680,Directed,e21664,,50.0,0
n333,n14358,Directed,e21358,,50.0,0
n333,n14364,Directed,e21362,,50.0,0
n333,n7189,Directed,e21360,,50.0,0
n337,n7455,Directed,e23632,,50.0,0
n3394,n14156,Directed,e23707,,50.0,0
n3394,n3393,Directed,e23705,,60.0,0
n34,n122,Directed,e23856,,50.0,0
n34,n12522,Directed,e23854,,50.0,0
n34,n14156,Directed,e23568,,50.0,0
n34,n1945,Directed,e23569,,60.0,0
n34,n7396,Directed,e23858,,50.0,0
n347,n10386,Directed,e22095,,60.0,0
n347,n10670,Directed,e21161,,60.0,0
n347,n14906,Directed,e22093,,60.0,0
n347,n18306,Directed,e21163,,70.0,0
n347,n344,Directed,e22231,,50.0,0
n3476,n14209,Directed,e21443,,70.0,0
n3476,n19377,Directed,e21441,,60.0,0
n3476,n2996,Directed,e21238,,130.0,0
n3476,n4024,Directed,e21316,,90.0,0
n3476,n4755,Directed,e21582,,50.0,0
n3476,n6898,Directed,e21236,,90.0,0
n3522,n15762,Directed,e21656,,50.0,0
n3522,n3521,Directed,e21634,,60.0,0
n3545,n3541,Directed,e23121,,50.0,8
n3560,n13092,Directed,e20909,,50.0,0
n3560,n3559,Directed,e20907,,50.0,0
n3560,n6098,Directed,e20903,,50.0,0
n3560,n9360,Directed,e20905,,50.0,0
n3620,n14308,Directed,e22269,,60.0,0
n3620,n19413,Directed,e22267,,60.0,0
n363,n19371,Directed,e21355,,50.0,0
n363,n5936,Directed,e21353,,50.0,0
n3684,n15174,Directed,e21281,,50.0,0
n3684,n16039,Directed,e21367,,50.0,0
n3684,n3687,Directed,e21285,,60.0,0
n3684,n924,Directed,e21283,,50.0,0
n3687,n15174,Directed,e21661,,50.0,0
n3687,n2395,Directed,e21660,,50.0,0
n3687,n3272,Directed,e21707,,50.0,0
n3687,n924,Directed,e21709,,50.0,0
n37,n11836,Directed,e21309,,60.0,0
n37,n38,Directed,e21311,,60.0,0
n37,n3875,Directed,e21307,,60.0,0
n375,n6513,Directed,e23469,,50.0,0
n3791,n14931,Directed,e23505,,50.0,0
n3791,n19492,Directed,e23503,,50.0,0
n3791,n19493,Directed,e23507,,50.0,0
n3791,n19494,Directed,e23509,,50.0,0
n3791,n4169,Directed,e23472,,50.0,0
n3798,n19269,Directed,e21847,,50.0,0
n3798,n6498,Directed,e21849,,60.0,0
n38,n19215,Directed,e22135,,60.0,8
n38,n19406,Directed,e22138,,50.0,8
n384,n13579,Directed,e22442,,50.0,0
n384,n1674,Directed,e22444,,50.0,0
n384,n17021,Directed,e22347,,60.0,0
n384,n19250,Directed,e22441,,50.0,0
n3848,n12161,Directed,e22261,,50.0,0
n3869,n1139,Directed,e23894,,50.0,0
n3869,n14944,Directed,e23890,,50.0,0
n3869,n1603,Directed,e23896,,50.0,0
n3869,n6575,Directed,e23892,,50.0,0
n3869,n6733,Directed,e23898,,50.0,0
n3869,n690,Directed,e23888,,50.0,0
n3892,n14174,Directed,e22750,,50.0,8
n40,n13271,Directed,e22991,,60.0,0
n40,n13567,Directed,e23217,,50.0,0
n40,n2104,Directed,e22989,,50.0,0
n4023,n4024,Directed,e23714,,50.0,0
n4029,n16206,Directed,e22646,,50.0,0
n4029,n19413,Directed,e22645,,80.0,0
n4029,n5255,Directed,e22709,,50.0,0
n4029,n9031,Directed,e22648,,70.0,0
n403,n15536,Directed,e21976,,100.0,0
n403,n2874,Directed,e22423,,50.0,0
n403,n9172,Directed,e22221,,70.0,0
n404,n5847,Directed,e22168,,60.0,0
n4043,n11626,Directed,e23709,,50.0,0
n4043,n788,Directed,e23708,,50.0,0
n4043,n792,Directed,e23648,,70.0,0
n408,n12643,Directed,e21083,,60.0,0
n408,n19358,Directed,e21081,,50.0,0
n4081,n17994,Directed,e21993,,50.0,0
n4081,n18110,Directed,e21920,,50.0,0
n4081,n19400,Directed,e21991,,50.0,0
n4081,n4083,Directed,e21918,,60.0,0
n4081,n9903,Directed,e21995,,50.0,0
n41,n10238,Directed,e21564,,80.0,0
n41,n14516,Directed,e21565,,90.0,0
n4115,n11171,Directed,e21445,,60.0,0
n4115,n17036,Directed,e21273,,60.0,0
n4214,n11251,Directed,e22598,,50.0,6
n4214,n6393,Directed,e22599,,50.0,6
n422,n14893,Directed,e23067,,50.0,0
n422,n8998,Directed,e22562,,50.0,0
n43,n14516,Directed,e22659,,80.0,0
n43,n7913,Directed,e22661,,80.0,0
n43,n89,Directed,e22660,,80.0,0
n430,n425,Directed,e22852,,50.0,0
n430,n426,Directed,e22854,,50.0,0
n430,n431,Directed,e22856,,60.0,0
n431,n17221,Directed,e23699,,50.0,8
n431,n17662,Directed,e23693,,50.0,8
n431,n17964,Directed,e23702,,50.0,8
n431,n19499,Directed,e23690,,50.0,8
n431,n19500,Directed,e23696,,50.0,8
n432,n12708,Directed,e21896,,50.0,0
n435,n619,Directed,e21492,,50.0,0
n44,n10238,Directed,e21126,,50.0,0
n44,n14516,Directed,e21124,,60.0,0
n44,n43,Directed,e21289,,50.0,0
n44,n89,Directed,e21291,,50.0,0
n440,n19364,Directed,e21173,,50.0,0
n440,n7681,Directed,e21175,,50.0,0
n4400,n13823,Directed,e21797,,60.0,0
n4400,n14463,Directed,e22000,,50.0,0
n4444,n12497,Directed,e22962,,60.0,0
n4444,n13252,Directed,e23100,,50.0,0
n4444,n13904,Directed,e23098,,50.0,0
n4444,n13909,Directed,e23102,,50.0,0
n4444,n4443,Directed,e22960,,60.0,0
n4463,n11729,Directed,e23256,,50.0,3
n4463,n4465,Directed,e23258,,50.0,3
n4463,n8613,Directed,e23260,,50.0,3
n4546,n3716,Directed,e21500,,50.0,0
n4546,n4602,Directed,e21453,,50.0,0
n4546,n481,Directed,e21499,,50.0,0
n459,n18408,Directed,e21869,,50.0,0
n459,n1846,Directed,e21489,,70.0,0
n460,n13999,Directed,e23501,,50.0,0
n4613,n11566,Directed,e21240,,50.0,0
n4613,n14623,Directed,e21119,,60.0,0
n4613,n19367,Directed,e21242,,50.0,0
n4613,n9368,Directed,e21118,,60.0,0
n4624,n12913,Directed,e22872,,50.0,6
n4624,n18575,Directed,e22873,,50.0,6
n4624,n18678,Directed,e22876,,50.0,6
n4624,n3712,Directed,e22871,,50.0,6
n4630,n10556,Directed,e22730,,50.0,8
n4630,n14837,Directed,e22722,,50.0,8
n4630,n16382,Directed,e22725,,50.0,8
n4630,n1726,Directed,e22739,,50.0,8
n4630,n18871,Directed,e22728,,50.0,8
n4630,n18887,Directed,e22733,,50.0,8
n4630,n2395,Directed,e22719,,50.0,8
n4630,n3545,Directed,e22716,,50.0,8
n4630,n744,Directed,e22736,,50.0,8
n4643,n12892,Directed,e23496,,50.0,0
n4643,n750,Directed,e23498,,50.0,0
n465,n10290,Directed,e22421,,50.0,0
n465,n13113,Directed,e22419,,50.0,0
n465,n16255,Directed,e22264,,60.0,0
n465,n9445,Directed,e22418,,50.0,0
n4680,n12913,Directed,e23752,,50.0,6
n4680,n3712,Directed,e23753,,50.0,6
n4680,n6256,Directed,e23754,,50.0,6
n4698,n7320,Directed,e23358,,50.0,6
n4723,n14214,Directed,e21613,,70.0,0
n4723,n4733,Directed,e21746,,50.0,0
n475,n14922,Directed,e21382,,50.0,0
n475,n481,Directed,e21384,,50.0,0
n475,n9360,Directed,e21385,,50.0,0
n479,n2958,Directed,e21640,,60.0,0
n479,n5998,Directed,e21654,,50.0,0
n48,n11698,Directed,e22833,,50.0,0
n48,n12269,Directed,e22835,,50.0,0
n48,n2248,Directed,e22837,,50.0,0
n48,n4024,Directed,e22940,,50.0,0
n48,n5419,Directed,e22832,,50.0,0
n4822,n11871,Directed,e23717,,50.0,8
n4822,n11873,Directed,e23718,,50.0,8
n4822,n2049,Directed,e23715,,50.0,8
n484,n10432,Directed,e21652,,50.0,0
n4847,n1061,Directed,e21574,,50.0,0
n4847,n12699,Directed,e21576,,50.0,0
n4847,n4859,Directed,e21572,,50.0,0
n489,n19370,Directed,e21322,,60.0,0
n489,n6979,Directed,e21324,,60.0,0
n4893,n19370,Directed,e23142,,50.0,7
n4899,n19423,Directed,e22407,,50.0,0
n4899,n19424,Directed,e22409,,50.0,0
n4899,n9319,Directed,e22411,,50.0,0
n4911,n481,Directed,e20942,,50.0,0
n4911,n6508,Directed,e21030,,50.0,0
n4946,n15963,Directed,e21858,,60.0,0
n4950,n16733,Directed,e21731,,50.0,0
n5,n13125,Directed,e21717,,50.0,0
n5005,n19440,Directed,e22609,,50.0,6
n5005,n19441,Directed,e22612,,60.0,6
n5005,n19442,Directed,e22618,,50.0,6
n5005,n924,Directed,e22615,,60.0,6
n5015,n1726,Directed,e22746,,60.0,8
n5015,n5013,Directed,e23295,,50.0,8
n503,n12653,Directed,e21158,,80.0,0
n503,n19375,Directed,e21390,,60.0,0
n503,n6954,Directed,e22438,,50.0,0
n503,n8503,Directed,e21033,,110.0,0
n503,n8760,Directed,e22371,,60.0,0
n507,n13625,Directed,e22863,,50.0,0
n507,n14610,Directed,e23171,,50.0,0
n507,n19452,Directed,e22866,,50.0,0
n507,n19453,Directed,e22868,,50.0,0
n507,n7309,Directed,e22864,,50.0,0
n509,n11251,Directed,e22595,,50.0,6
n509,n6393,Directed,e22592,,50.0,6
n509,n9368,Directed,e22593,,50.0,6
n511,n12699,Directed,e21659,,60.0,0
n511,n16301,Directed,e21701,,50.0,0
n512,n14703,Directed,e22544,,50.0,0
n512,n2395,Directed,e22022,,110.0,0
n512,n6026,Directed,e22021,,80.0,0
n513,n14156,Directed,e23763,,50.0,0
n513,n19375,Directed,e23655,,50.0,0
n513,n3507,Directed,e23656,,50.0,0
n521,n19357,Directed,e21063,,50.0,0
n521,n2048,Directed,e21013,,50.0,0
n521,n2522,Directed,e21011,,50.0,0
n521,n3322,Directed,e21014,,60.0,0
n523,n19300,Directed,e22305,,50.0,0
n5265,n6318,Directed,e23901,,50.0,0
n528,n5955,Directed,e22098,,50.0,0
n5419,n19469,Directed,e23145,,50.0,8
n5419,n19470,Directed,e23151,,50.0,8
n5419,n2248,Directed,e21737,,50.0,0
n5419,n2826,Directed,e23148,,50.0,8
n5419,n4988,Directed,e21715,,50.0,0
n5426,n4839,Directed,e21591,,50.0,0
n5426,n5425,Directed,e21342,,50.0,0
n544,n12699,Directed,e22773,,50.0,0
n544,n19479,Directed,e23249,,50.0,0
n5510,n15751,Directed,e23186,,50.0,0
n5510,n18130,Directed,e23593,,50.0,0
n5510,n2738,Directed,e23188,,60.0,0
n5510,n5512,Directed,e23185,,50.0,0
n5510,n6086,Directed,e23187,,60.0,0
n5512,n15910,Directed,e22291,,50.0,0
n5512,n6086,Directed,e22293,,60.0,0
n557,n2146,Directed,e22690,,50.0,0
n5579,n11308,Directed,e23198,,70.0,0
n5579,n13380,Directed,e23194,,80.0,0
n5579,n14271,Directed,e23243,,80.0,0
n5579,n17690,Directed,e23244,,50.0,0
n5579,n5577,Directed,e23196,,80.0,0
n5579,n5578,Directed,e23241,,50.0,0
n56,n12284,Directed,e22416,,50.0,0
n56,n19404,Directed,e22128,,100.0,0
n56,n19414,Directed,e22339,,60.0,0
n56,n2049,Directed,e22124,,60.0,0
n56,n9003,Directed,e22126,,100.0,0
n56,n9452,Directed,e22122,,80.0,0
n5629,n11893,Directed,e22087,,60.0,0
n5629,n11894,Directed,e22359,,70.0,0
n563,n10786,Directed,e21457,,50.0,0
n564,n10785,Directed,e21339,,50.0,0
n564,n13117,Directed,e21337,,60.0,0
n564,n19376,Directed,e21429,,50.0,0
n564,n563,Directed,e21335,,60.0,0
n568,n17828,Directed,e20987,,50.0,0
n568,n4760,Directed,e20985,,50.0,0
n5716,n17273,Directed,e21699,,50.0,0
n5725,n19396,Directed,e21936,,50.0,0
n5725,n19412,Directed,e22246,,50.0,0
n5725,n5727,Directed,e22248,,50.0,0
n5742,n12969,Directed,e21802,,60.0,0
n5742,n19387,Directed,e21800,,50.0,0
n575,n11566,Directed,e21424,,60.0,0
n575,n12951,Directed,e21511,,50.0,0
n575,n14358,Directed,e21421,,50.0,0
n575,n14623,Directed,e21420,,60.0,0
n575,n18871,Directed,e21422,,60.0,0
n579,n12635,Directed,e22082,,60.0,0
n5814,n5812,Directed,e22380,,50.0,0
n5814,n6850,Directed,e22382,,60.0,0
n59,n3666,Directed,e23810,,50.0,0
n59,n9618,Directed,e23812,,50.0,0
n594,n11578,Directed,e20962,,50.0,0
n594,n19331,Directed,e20874,,60.0,0
n597,n14156,Directed,e20970,,60.0,0
n597,n17745,Directed,e21647,,50.0,0
n597,n598,Directed,e20971,,50.0,0
n600,n7503,Directed,e21460,,60.0,0
n601,n10241,Directed,e23490,,50.0,0
n601,n19489,Directed,e23380,,50.0,0
n601,n4024,Directed,e23383,,60.0,0
n601,n643,Directed,e23382,,60.0,0
n6011,n17199,Directed,e21187,,60.0,0
n6011,n19365,Directed,e21185,,50.0,0
n6011,n4024,Directed,e21249,,50.0,0
n6021,n12497,Directed,e23596,,60.0,0
n6021,n13252,Directed,e23595,,50.0,0
n6021,n14156,Directed,e23522,,50.0,6
n6021,n15963,Directed,e23649,,50.0,0
n6021,n19495,Directed,e23523,,50.0,6
n6021,n6026,Directed,e23654,,50.0,0
n6021,n7910,Directed,e23652,,50.0,0
n6021,n9016,Directed,e23650,,50.0,0
n6021,n9360,Directed,e23597,,60.0,0
n608,n18635,Directed,e20930,,60.0,0
n608,n19332,Directed,e20932,,60.0,0
n6098,n14156,Directed,e23764,,50.0,0
n6098,n6026,Directed,e23765,,50.0,0
n610,n15580,Directed,e22325,,50.0,0
n612,n15789,Directed,e23492,,60.0,0
n612,n3993,Directed,e23415,,60.0,0
n612,n4024,Directed,e23226,,80.0,0
n612,n4783,Directed,e23494,,60.0,0
n612,n615,Directed,e23223,,60.0,0
n612,n616,Directed,e23838,,50.0,0
n612,n8358,Directed,e23224,,60.0,0
n615,n1341,Directed,e21478,,50.0,0
n615,n3993,Directed,e21247,,60.0,0
n615,n4024,Directed,e21245,,60.0,0
n615,n7937,Directed,e21476,,50.0,0
n616,n2996,Directed,e22314,,50.0,0
n616,n4024,Directed,e22313,,50.0,0
n616,n8527,Directed,e22312,,50.0,0
n6256,n11289,Directed,e20996,,60.0,0
n6256,n6476,Directed,e20998,,60.0,0
n6276,n15506,Directed,e22219,,60.0,0
n6276,n19417,Directed,e22365,,50.0,0
n6276,n9783,Directed,e22217,,60.0,0
n628,n1194,Directed,e22115,,60.0,0
n628,n1875,Directed,e22114,,50.0,0
n628,n18796,Directed,e22112,,60.0,0
n628,n18901,Directed,e22117,,50.0,0
n628,n2717,Directed,e22119,,50.0,0
n630,n778,Directed,e21703,,50.0,0
n6308,n11566,Directed,e22333,,50.0,0
n6308,n12606,Directed,e22335,,60.0,0
n6308,n16281,Directed,e22334,,50.0,0
n6308,n18711,Directed,e22331,,50.0,0
n6308,n1907,Directed,e22329,,60.0,0
n6308,n19415,Directed,e22354,,50.0,0
n6317,n2044,Directed,e22310,,50.0,0
n6393,n13134,Directed,e22641,,50.0,6
n6393,n9866,Directed,e22638,,50.0,6
n6418,n6634,Directed,e23635,,50.0,0
n6425,n12408,Directed,e23876,,50.0,0
n6425,n16961,Directed,e23877,,50.0,0
n643,n11947,Directed,e22531,,50.0,0
n643,n4024,Directed,e22530,,60.0,0
n643,n7937,Directed,e22533,,50.0,0
n644,n11689,Directed,e23179,,50.0,0
n644,n12161,Directed,e22841,,60.0,0
n644,n19450,Directed,e22842,,50.0,0
n644,n2996,Directed,e22844,,60.0,0
n644,n3993,Directed,e22839,,50.0,0
n644,n4024,Directed,e22840,,60.0,0
n645,n9833,Directed,e21481,,50.0,0
n647,n1049,Directed,e21048,,50.0,0
n647,n12237,Directed,e21052,,50.0,0
n647,n12264,Directed,e21050,,60.0,0
n647,n19360,Directed,e21108,,60.0,0
n647,n3135,Directed,e20858,,90.0,0
n647,n6086,Directed,e21058,,50.0,0
n647,n648,Directed,e21054,,60.0,0
n647,n73,Directed,e21056,,60.0,0
n647,n9368,Directed,e20856,,60.0,0
n6496,n14364,Directed,e21912,,50.0,0
n6498,n11846,Directed,e22805,,50.0,0
n6498,n6501,Directed,e22807,,50.0,0
n65,n1882,Directed,e21666,,50.0,0
n65,n2048,Directed,e20954,,70.0,0
n65,n3322,Directed,e20887,,80.0,0
n65,n8715,Directed,e20889,,100.0,0
n654,n12193,Directed,e21396,,60.0,0
n654,n12221,Directed,e21409,,50.0,0
n654,n653,Directed,e21411,,50.0,0
n654,n6710,Directed,e21394,,60.0,0
n6604,n13879,Directed,e22160,,60.0,0
n6604,n5626,Directed,e22162,,60.0,0
n668,n13108,Directed,e23206,,50.0,0
n668,n5805,Directed,e22859,,60.0,0
n67,n10588,Directed,e23615,,60.0,0
n67,n8715,Directed,e23617,,50.0,0
n678,n1049,Directed,e21475,,60.0,0
n678,n3053,Directed,e21473,,60.0,0
n678,n5847,Directed,e21474,,60.0,0
n678,n684,Directed,e21566,,50.0,0
n6799,n12697,Directed,e22911,,60.0,0
n6799,n16551,Directed,e22916,,70.0,0
n6799,n19457,Directed,e22914,,70.0,0
n6799,n19475,Directed,e23202,,60.0,0
n6799,n19476,Directed,e23204,,60.0,0
n6799,n19482,Directed,e23293,,50.0,0
n6799,n9319,Directed,e22913,,50.0,0
n6841,n6517,Directed,e23861,,50.0,0
n6846,n1248,Directed,e21839,,50.0,0
n6846,n19486,Directed,e23322,,50.0,8
n685,n1049,Directed,e22320,,60.0,0
n685,n19419,Directed,e22373,,50.0,0
n685,n3053,Directed,e22319,,50.0,0
n685,n3135,Directed,e22318,,60.0,0
n688,n11961,Directed,e22392,,60.0,0
n688,n13353,Directed,e22472,,50.0,0
n6917,n11635,Directed,e23301,,50.0,8
n6917,n19471,Directed,e23155,,60.0,8
n6917,n19472,Directed,e23158,,50.0,8
n6917,n19483,Directed,e23298,,50.0,8
n7043,n12278,Directed,e21401,,50.0,0
n7043,n6021,Directed,e21399,,60.0,0
n71,n8633,Directed,e22284,,50.0,0
n711,n12408,Directed,e21208,,50.0,0
n711,n12545,Directed,e21255,,50.0,0
n711,n6924,Directed,e21212,,60.0,0
n711,n798,Directed,e21210,,50.0,0
n712,n12339,Directed,e23182,,50.0,0
n712,n12525,Directed,e23170,,60.0,0
n7153,n17301,Directed,e23404,,60.0,0
n7153,n6086,Directed,e23414,,50.0,0
n7153,n9481,Directed,e23402,,50.0,0
n716,n11434,Directed,e20951,,50.0,0
n7196,n19481,Directed,e23277,,50.0,3
n7196,n6734,Directed,e23279,,50.0,3
n72,n15054,Directed,e22196,,50.0,0
n72,n73,Directed,e22158,,60.0,0
n7222,n18928,Directed,e23744,,50.0,6
n7222,n2761,Directed,e23741,,50.0,6
n725,n13620,Directed,e23869,,50.0,0
n725,n19508,Directed,e23867,,50.0,0
n727,n798,Directed,e22108,,50.0,0
n7281,n17285,Directed,e22368,,60.0,0
n7308,n18930,Directed,e23023,,60.0,0
n7308,n4848,Directed,e23017,,50.0,0
n7308,n542,Directed,e23021,,60.0,0
n7308,n7309,Directed,e23239,,50.0,0
n7308,n8468,Directed,e23019,,60.0,0
n733,n4640,Directed,e20960,,50.0,0
n7340,n8538,Directed,e23645,,50.0,0
n7385,n11726,Directed,e20965,,50.0,0
n7387,n11706,Directed,e21972,,50.0,0
n7410,n15591,Directed,e22475,,50.0,0
n7410,n15594,Directed,e22446,,50.0,0
n7410,n16959,Directed,e22449,,50.0,0
n7410,n19089,Directed,e22448,,60.0,0
n7410,n7411,Directed,e22445,,60.0,0
n7411,n18949,Directed,e21600,,60.0,0
n7411,n19089,Directed,e21598,,50.0,0
n7411,n7410,Directed,e21596,,50.0,0
n7454,n14270,Directed,e21130,,50.0,0
n7454,n14271,Directed,e21134,,50.0,0
n7454,n7461,Directed,e21132,,50.0,0
n752,n4782,Directed,e23533,,50.0,3
n7524,n14939,Directed,e21979,,80.0,0
n7524,n4440,Directed,e22353,,50.0,0
n7524,n4836,Directed,e22351,,60.0,0
n753,n16281,Directed,e20878,,60.0,0
n754,n19300,Directed,e22404,,60.0,0
n754,n19422,Directed,e22405,,50.0,0
n754,n8288,Directed,e22496,,60.0,0
n755,n19384,Directed,e21726,,50.0,0
n755,n8288,Directed,e21690,,60.0,0
n7603,n7939,Directed,e21962,,60.0,0
n7603,n9349,Directed,e22012,,50.0,0
n765,n6029,Directed,e23209,,60.0,0
n7681,n17598,Directed,e22889,,60.0,8
n7681,n19454,Directed,e22886,,50.0,8
n7681,n3135,Directed,e22883,,50.0,8
n77,n2044,Directed,e23641,,60.0,0
n77,n3322,Directed,e23728,,50.0,0
n77,n67,Directed,e23640,,60.0,0
n77,n89,Directed,e23796,,50.0,0
n789,n14156,Directed,e20973,,50.0,0
n789,n17086,Directed,e21038,,50.0,0
n789,n17325,Directed,e21036,,50.0,0
n789,n788,Directed,e20861,,70.0,0
n792,n15913,Directed,e22906,,50.0,0
n792,n19456,Directed,e22908,,50.0,0
n792,n4043,Directed,e22992,,50.0,0
n792,n788,Directed,e22905,,60.0,0
n7938,n12699,Directed,e22564,,50.0,0
n798,n12545,Directed,e22677,,60.0,0
n798,n12547,Directed,e23483,,50.0,0
n798,n17021,Directed,e23416,,60.0,0
n798,n2964,Directed,e23485,,50.0,0
n8025,n16206,Directed,e23351,,50.0,6
n8025,n7320,Directed,e23354,,50.0,6
n804,n11788,Directed,e21221,,50.0,0
n804,n12140,Directed,e21104,,50.0,0
n804,n13018,Directed,e21215,,50.0,0
n804,n1640,Directed,e21219,,50.0,0
n804,n2506,Directed,e21217,,50.0,0
n804,n3053,Directed,e21106,,80.0,0
n8164,n4815,Directed,e23733,,50.0,0
n8196,n6026,Directed,e21778,,60.0,0
n82,n2044,Directed,e23864,,50.0,0
n8209,n5847,Directed,e21927,,60.0,0
n821,n12699,Directed,e21781,,50.0,0
n828,n9439,Directed,e21931,,50.0,0
n8288,n11705,Directed,e21901,,60.0,0
n8288,n19272,Directed,e21903,,50.0,0
n83,n15820,Directed,e21437,,70.0,0
n83,n17445,Directed,e21509,,60.0,0
n83,n19250,Directed,e21510,,60.0,0
n83,n19379,Directed,e21569,,50.0,0
n83,n3322,Directed,e21320,,80.0,0
n841,n13271,Directed,e20884,,60.0,0
n841,n14156,Directed,e20883,,50.0,0
n841,n9445,Directed,e20881,,50.0,0
n8594,n8322,Directed,e21946,,50.0,0
n8679,n18359,Directed,e21809,,50.0,0
n8679,n19388,Directed,e21807,,50.0,0
n8695,n14156,Directed,e23840,,50.0,0
n8695,n4666,Directed,e23841,,50.0,0
n8784,n11800,Directed,e20926,,60.0,0
n8784,n15963,Directed,e20924,,60.0,0
n8787,n11559,Directed,e22295,,60.0,0
n8787,n2159,Directed,e22297,,50.0,0
n8806,n11171,Directed,e22534,,50.0,0
n8806,n3397,Directed,e22517,,50.0,0
n881,n12699,Directed,e21170,,60.0,0
n881,n14156,Directed,e21169,,60.0,0
n8873,n19395,Directed,e21914,,50.0,0
n8873,n5794,Directed,e22155,,50.0,0
n90,n3314,Directed,e23738,,60.0,0
n90,n91,Directed,e23736,,60.0,0
n911,n1726,Directed,e20919,,70.0,0
n911,n4630,Directed,e20917,,70.0,0
n9130,n7320,Directed,e23826,,50.0,6
n9137,n2165,Directed,e20914,,50.0,0
n9137,n5880,Directed,e20912,,50.0,0
n916,n13371,Directed,e21464,,50.0,0
n916,n2591,Directed,e21467,,50.0,0
n916,n5005,Directed,e21462,,50.0,0
n916,n8741,Directed,e21466,,50.0,0
n9212,n12951,Directed,e20946,,50.0,0
n9212,n17517,Directed,e20944,,50.0,0
n9212,n9455,Directed,e20948,,50.0,0
n924,n2591,Directed,e23546,,50.0,0
n924,n6244,Directed,e23548,,50.0,0
n924,n8741,Directed,e23413,,60.0,0
n924,n916,Directed,e23547,,50.0,0
n9270,n7600,Directed,e22201,,60.0,0
n9297,n13298,Directed,e23094,,60.0,0
n9297,n1461,Directed,e23096,,50.0,0
n9297,n19477,Directed,e23213,,50.0,0
n9297,n19478,Directed,e23215,,50.0,0
n9297,n8163,Directed,e23211,,50.0,0
n9330,n12319,Directed,e20898,,60.0,0
n9330,n19333,Directed,e20983,,50.0,0
n9330,n2872,Directed,e20900,,50.0,0
n9360,n10697,Directed,e21517,,50.0,0
n9360,n12497,Directed,e21505,,60.0,0
n9360,n16763,Directed,e21502,,60.0,0
n9360,n2395,Directed,e21515,,50.0,0
n9360,n6021,Directed,e21507,,50.0,0
n9360,n6508,Directed,e21504,,50.0,0
n9360,n6509,Directed,e21519,,50.0,0
n9365,n15346,Directed,e21265,,60.0,0
n9367,n18589,Directed,e23370,,50.0,0
n9367,n3221,Directed,e23191,,60.0,0
n9367,n5512,Directed,e23190,,50.0,0
n9367,n7681,Directed,e23369,,50.0,0
n9367,n9368,Directed,e23193,,60.0,0
n9367,n9941,Directed,e23371,,50.0,0
n9368,n11251,Directed,e23056,,50.0,6
n9368,n12312,Directed,e22147,,50.0,8
n9368,n19360,Directed,e22747,,50.0,8
n9368,n509,Directed,e22144,,50.0,8
n9368,n6393,Directed,e23055,,50.0,6
n9374,n11871,Directed,e22241,,50.0,0
n9374,n12408,Directed,e22242,,50.0,0
n9374,n14156,Directed,e22240,,50.0,0
n9376,n9379,Directed,e22010,,60.0,0
n9403,n10743,Directed,e23177,,70.0,0
n9403,n12408,Directed,e23175,,70.0,0
n9403,n12699,Directed,e23176,,70.0,0
n9403,n14156,Directed,e23406,,50.0,0
n9403,n16281,Directed,e23174,,60.0,0
n9403,n19250,Directed,e23482,,50.0,0
n9439,n19438,Directed,e22565,,50.0,0
n9439,n2511,Directed,e22538,,100.0,0
n9439,n9022,Directed,e22567,,50.0,0
n9493,n19497,Directed,e23531,,50.0,7
n9539,n19391,Directed,e21819,,50.0,0
n9540,n3280,Directed,e21046,,50.0,0
n9620,n10414,Directed,e22016,,50.0,0
n9625,n19462,Directed,e23489,,50.0,0
n9625,n19491,Directed,e23487,,60.0,0
n9827,n19496,Directed,e23528,,50.0,7
n9951,n13625,Directed,e23066,,50.0,0
n9951,n4214,Directed,e23064,,50.0,0
n9957,n19372,Directed,e21365,,60.0,0
n997,n10255,Directed,e21487,,50.0,0
