2011-12-27 10
2011-12-28 5
2011-12-29 25
2011-12-30 46
2012-01-01 2
2012-01-02 1
2012-01-03 3
2012-01-04 14
2012-01-06 38
2012-01-07 28
2012-01-08 1
2012-01-09 4
2012-01-11 2
2012-01-18 7
2012-01-20 15
2012-01-21 19
2012-01-26 2
2012-01-28 3
2012-01-29 4
2012-01-30 4
2012-01-31 1
2012-02-03 18
2012-02-04 2
2012-02-10 1
2012-02-13 25
2012-02-18 10
2012-02-19 3
2012-02-22 3
2012-02-27 19
2012-02-28 2
2012-03-01 3
2012-03-02 1
2012-03-12 5
2012-03-23 1
2012-03-29 4
2012-04-03 13
2012-04-04 3
