date	what
2012-01-06 18:21:24	jogadores 'renataramisch' e 'ceramisch' ganharam <b>182</b> créditos com <b>'achegar'</b>.
2012-01-06 18:22:27	jogadores 'SweetJesusOnAStick' e 'ceramisch' ganharam <b>368</b> créditos com <b>'desenho'</b> \n\tpara a relação 'idéia associada'. Jackpot !
2012-01-06 18:22:27	O termo 'desenho' acaba de ser capturado.
2012-01-06 18:23:01	jogador &#39;ceramisch&#39; tem um novo amigo...
2012-01-06 19:17:34	jogadores 'renataramisch' e 'rogergranada' ganharam <b>362</b> créditos com <b>'tradução'</b> \n\tpara a relação 'idéia associada'. Jackpot !
2012-01-06 19:17:34	O termo 'tradução'  acaba de mudar de proprietário.
2012-01-06 19:18:51	jogadores 'matbill' e 'rogergranada' ganharam <b>88</b> créditos com <b>'alencar'</b>.
2012-01-06 19:20:10	jogadores 'MatheusLin' e 'rogergranada' ganharam <b>245</b> créditos com <b>'rodo'</b> \n\tpara a relação 'idéia associada'. Jackpot !
2012-01-06 19:20:10	O termo 'rodo'  acaba de mudar de proprietário.
2012-01-07 13:36:25	jogador 'ceramisch' invocou uma palavra...
2012-01-07 13:38:48	jogadores 'renataramisch' e 'ceramisch' ganharam <b>61</b> créditos com <b>'céu'</b>.
2012-01-07 13:40:08	jogadores 'renataramisch' e 'ceramisch' ganharam <b>105</b> créditos com <b>'esponja'</b>.
2012-01-07 13:41:30	jogadores 'matbill' e 'ceramisch' ganharam <b>20</b> créditos com <b>'obviar'</b>. <img src="pics/JDM-bonus-dot2.gif">
2012-01-07 13:42:34	jogador 'ceramisch' investiu em <b>'acreditar'</b>.
2012-01-21 19:45:42	jogadores 'rogergranada' e 'denisao' ganharam <b>63</b> créditos com <b>'aparecer na lua cheia'</b>. <img src="pics/JDM-bonus-dot.gif">
2012-01-21 20:14:22	jogadores 'rogergranada' e 'lorreine' ganharam <b>183</b> créditos com <b>'alimentado'</b>.
2012-01-21 20:16:09	jogadores 'SweetJesusOnAStick' e 'lorreine' ganharam <b>303</b> créditos com <b>'alimentar pessoa'</b> \n\tpara a relação 'idéia associada'. Jackpot !
2012-01-21 20:16:09	O termo 'alimentar pessoa' acaba de ser capturado.
2012-01-21 20:17:32	jogadores 'rogergranada' e 'lorreine' ganharam <b>125</b> créditos com <b>'corda'</b>. <img src="pics/JDM-bonus-dot.gif">
2012-01-21 20:19:43	jogadores 'rogergranada' e 'lorreine' ganharam <b>63</b> créditos com <b>'agüentar'</b>. <img src="pics/JDM-bonus-dot.gif">
2012-01-21 20:21:03	jogadores 'rogergranada' e 'lorreine' ganharam <b>325</b> créditos com <b>'colocar compra'</b> \n\tpara a relação 'idéia associada'. Jackpot !
2012-01-21 20:21:04	O termo 'colocar compra' acaba de ser capturado.
2012-02-03 13:36:29	jogadores 'rogergranada' e 'Emmanuelle' ganharam <b>63</b> créditos com <b>'suspeitar de alguma doença'</b>. <img src="pics/JDM-bonus-dot.gif">
2012-02-03 13:40:48	jogadores 'SweetJesusOnAStick' e 'Emmanuelle' ganharam <b>237</b> créditos com <b>'picanha'</b> \n\tpara a relação 'idéia associada'. Jackpot !
2012-02-03 13:41:54	jogadores 'rogergranada' e 'Emmanuelle' ganharam <b>63</b> créditos com <b>'pessoa a provocar'</b>. <img src="pics/JDM-bonus-dot.gif">
2012-02-03 13:43:05	jogador 'Emmanuelle' investiu em <b>'doutor'</b>.
2012-02-03 13:44:51	jogador 'Emmanuelle' investiu em <b>'chaveiro'</b>.
2012-02-03 13:47:15	jogador 'Emmanuelle' investiu em <b>'abrir a lata'</b>.
2012-02-04 08:40:13	jogadores 'lorreine' e 'guest' ganharam <b>125</b> créditos com <b>'acrílico'</b>. <img src="pics/JDM-bonus-dot.gif">
2012-01-06 13:35:29	jogadores 'renataramisch' e 'rogergranada' ganharam <b>62</b> créditos com <b>'restaurante popular'</b>.
2012-01-04 00:29:28	jogadores 'renataramisch' e 'matbill' ganharam <b>63</b> créditos com <b>'amadeus'</b>. <img src="pics/JDM-bonus-dot.gif">
2012-01-04 00:23:08	jogadores 'ceramisch' e 'matbill' ganharam <b>44</b> créditos com <b>'piscina'</b>. <img src="pics/JDM-bonus-dot2.gif">
2012-01-06 13:36:44	jogadores 'renataramisch' e 'rogergranada' ganharam <b>123</b> créditos com <b>'amadeus'</b>.
2012-01-06 13:38:00	jogadores 'renataramisch' e 'rogergranada' ganharam <b>302</b> créditos com <b>'pescador'</b> \n\tpara a relação 'idéia associada'. Jackpot !
2012-01-06 13:39:18	jogadores 'renataramisch' e 'rogergranada' ganharam <b>120</b> créditos com <b>'iara'</b>.
2012-01-06 13:40:36	jogadores 'ceramisch' e 'rogergranada' ganharam <b>250</b> créditos com <b>'descansar'</b> \n\tpara a relação 'idéia associada'. Jackpot ! <img src="pics/JDM-bonus-dot.gif">
2012-01-06 13:40:36	O termo 'descansar' acaba de ser capturado.
2012-01-06 13:41:52	jogadores 'renataramisch' e 'rogergranada' ganharam <b>188</b> créditos com <b>'hotel fazenda'</b>. <img src="pics/JDM-bonus-dot.gif">
2012-02-04 08:41:43	jogadores 'freitas' e 'guest' ganharam <b>59</b> créditos com <b>'aberto'</b>.
2012-01-18 14:49:23	jogadores 'rogergranada' e 'ceramisch' ganharam <b>125</b> créditos com <b>'sistematizar'</b>. <img src="pics/JDM-bonus-dot.gif">
2012-01-18 14:50:47	jogadores 'rogergranada' e 'ceramisch' ganharam <b>188</b> créditos com <b>'parágrafo'</b>. <img src="pics/JDM-bonus-dot.gif">
2012-01-18 14:46:26	jogadores 'rogergranada' e 'ceramisch' ganharam <b>63</b> créditos com <b>'subjetivo'</b>. <img src="pics/JDM-bonus-dot.gif">
2012-01-17 21:25:59	boas vindas a 'Caio Mello' que acabou de se registrar.
2012-01-18 14:47:17	jogadores 'rogergranada' e 'ceramisch' ganharam <b>213</b> créditos com <b>'alimentado'</b> \n\tpara a relação 'idéia associada'. Jackpot ! <img src="pics/JDM-bonus-dot.gif">
2012-01-18 14:51:39	jogadores 'rogergranada' e 'ceramisch' ganharam <b>250</b> créditos com <b>'terrestre'</b> \n\tpara a relação 'idéia associada'. Jackpot ! <img src="pics/JDM-bonus-dot.gif">
2012-01-11 20:13:26	jogadores 'freitas' e 'renata.tsuruda' ganharam <b>57</b> créditos com <b>'ignorante'</b>.
2012-01-11 20:59:55	jogadores 'renataramisch' e 'SweetJesusOnAStick' ganharam <b>308</b> créditos com <b>'hotel fazenda'</b> \n\tpara a relação 'idéia associada'. Jackpot !
2012-01-11 20:59:55	O termo 'hotel fazenda' acaba de ser capturado.
2012-01-18 14:51:39	O termo 'terrestre' acaba de ser capturado.
2012-01-18 14:52:49	jogadores 'rogergranada' e 'ceramisch' ganharam <b>125</b> créditos com <b>'estar sonhando acordado'</b>. <img src="pics/JDM-bonus-dot.gif">
2012-01-18 14:53:51	jogadores 'renataramisch' e 'ceramisch' ganharam <b>241</b> créditos com <b>'iara'</b> \n\tpara a relação 'idéia associada'. Jackpot !
2012-01-18 14:53:51	O termo 'iara'  acaba de mudar de proprietário.
2012-01-20 11:10:35	jogadores 'rogergranada' e 'Emmanuelle' ganharam <b>63</b> créditos com <b>'presente'</b>. <img src="pics/JDM-bonus-dot.gif">
2012-01-20 11:37:40	jogadores 'SweetJesusOnAStick' e 'Emmanuelle' ganharam <b>117</b> créditos com <b>'desenho'</b>.
2012-01-08 16:04:14	jogadores 'ceramisch' e 'rogergranada' ganharam <b>207</b> créditos com <b>'acreditar'</b> \n\tpara a relação 'idéia associada'. Jackpot !
2012-01-20 11:38:53	jogadores 'rogergranada' e 'Emmanuelle' ganharam <b>88</b> créditos com <b>'thriller'</b>. <img src="pics/JDM-bonus-dot.gif">
2012-01-08 16:04:14	O termo 'acreditar'  acaba de mudar de proprietário.
2012-01-09 18:29:31	jogadores 'matbill' e 'ceramisch' ganharam <b>6</b> créditos com <b>'térmico'</b>. <img src="pics/JDM-bonus-dot2.gif">
2012-01-09 18:33:56	jogadores 'matbill' e 'ceramisch' ganharam <b>117</b> créditos com <b>'festa'</b>. <img src="pics/JDM-bonus-dot2.gif">
2012-01-09 18:35:41	jogadores 'matbill' e 'ceramisch' ganharam <b>57</b> créditos com <b>'corrida'</b>. <img src="pics/JDM-bonus-dot2.gif">
2012-01-09 18:36:41	ceramisch ajudou a alcançar a marca de 100 relações. Bravo ! + 20 Honra
2012-01-07 16:07:31	jogadores 'guest' e 'lorreine' ganharam <b>172</b> créditos com <b>'praticar exercício'</b>.
2012-01-07 16:07:31	O termo 'praticar exercício'  acaba de mudar de proprietário.
2012-01-07 16:11:27	jogadores 'freitas' e 'lorreine' ganharam <b>59</b> créditos com <b>'pedir'</b>.
2012-01-20 11:40:56	jogador 'Emmanuelle' investiu em <b>'beleza'</b>.
2012-01-20 11:42:34	jogador 'Emmanuelle' investiu em <b>'albuquerque'</b>.
2012-01-20 11:45:06	jogadores 'rogergranada' e 'Emmanuelle' ganharam <b>125</b> créditos com <b>'navio'</b>. <img src="pics/JDM-bonus-dot.gif">
2012-01-21 19:42:12	jogadores 'rogergranada' e 'denisao' ganharam <b>183</b> créditos com <b>'navio'</b>.
2012-01-07 13:13:20	O termo 'conta matemática' acaba de ser capturado.
2012-01-07 01:27:46	jogadores 'ceramisch' e 'rogergranada' ganharam <b>177</b> créditos com <b>'suicídio'</b>.
2012-01-07 13:26:46	jogadores 'matbill' e 'ceramisch' ganharam <b>63</b> créditos com <b>'vendedor'</b>.
2012-01-07 13:13:20	jogadores 'freitas' e 'ceramisch' ganharam <b>319</b> créditos com <b>'conta matemática'</b> \n\tpara a relação 'domínio'. Jackpot ! <img src="pics/JDM-bonus-dot2.gif">
2012-01-07 13:19:45	jogadores 'matbill' e 'ceramisch' ganharam <b>203</b> créditos com <b>'sitiar'</b> \n\tpara a relação 'domínio'. Jackpot ! <img src="pics/JDM-bonus-dot2.gif">
2012-01-07 13:31:57	jogadores 'renataramisch' e 'ceramisch' ganharam <b>30</b> créditos com <b>'fazenda'</b>.
2012-01-07 13:28:07	jogadores 'renataramisch' e 'ceramisch' ganharam <b>94</b> créditos com <b>'padre'</b>. <img src="pics/JDM-bonus-dot2.gif">
2012-01-07 13:23:16	jogadores 'matbill' e 'ceramisch' ganharam <b>241</b> créditos com <b>'estilete'</b> \n\tpara a relação 'domínio'. Jackpot ! <img src="pics/JDM-bonus-dot2.gif">
2012-01-07 13:34:06	jogadores 'freitas' e 'ceramisch' ganharam <b>326</b> créditos com <b>'escroto'</b> \n\tpara a relação 'idéia associada'. Jackpot !
2012-01-09 18:36:42	jogadores 'renataramisch' e 'ceramisch' ganharam <b>250</b> créditos com <b>'preto'</b> \n\tpara a relação 'genérico'. Jackpot ! <img src="pics/JDM-bonus-dot2.gif">
2012-01-09 18:36:42	O termo 'preto' acaba de ser capturado.
2012-01-07 15:06:01	jogadores 'freitas' e 'ceramisch' ganharam <b>30</b> créditos com <b>'matemática'</b>.
2012-01-09 18:36:58	jogador &#39;ceramisch&#39; tem um novo amigo...
2012-01-07 16:06:13	jogadores 'SweetJesusOnAStick' e 'lorreine' ganharam <b>178</b> créditos com <b>'desenho'</b>.
2012-01-07 14:49:50	jogadores 'renataramisch' e 'ceramisch' ganharam <b>44</b> créditos com <b>'espada'</b>. <img src="pics/JDM-bonus-dot2.gif">
2012-01-07 14:57:26	jogadores 'renataramisch' e 'ceramisch' ganharam <b>181</b> créditos com <b>'ser vivo'</b>. <img src="pics/JDM-bonus-dot2.gif">
2012-01-07 13:44:34	jogadores 'freitas' e 'ceramisch' ganharam <b>206</b> créditos com <b>'tatuagem'</b> \n\tpara a relação 'idéia associada'. Jackpot !
2012-01-07 13:46:22	jogadores 'rogergranada' e 'ceramisch' ganharam <b>188</b> créditos com <b>'bicho geográfico'</b>. <img src="pics/JDM-bonus-dot.gif">
2012-01-07 13:47:32	jogadores 'freitas' e 'ceramisch' ganharam <b>176</b> créditos com <b>'aberto'</b>.
2012-01-07 13:48:44	jogadores 'freitas' e 'ceramisch' ganharam <b>59</b> créditos com <b>'pedir'</b>.
2012-01-07 14:44:52	jogadores 'renataramisch' e 'ceramisch' ganharam <b>145</b> créditos com <b>'menino'</b>. <img src="pics/JDM-bonus-dot2.gif">
2012-01-07 15:09:19	jogadores 'renataramisch' e 'ceramisch' ganharam <b>94</b> créditos com <b>'vasilhame'</b>. <img src="pics/JDM-bonus-dot2.gif">
2012-01-07 16:05:03	jogadores 'tpeninha' e 'lorreine' ganharam <b>117</b> créditos com <b>'redor'</b>.
2012-02-13 12:17:08	jogadores 'Emmanuelle' e 'ceramisch' ganharam <b>125</b> créditos com <b>'abridor'</b>. <img src="pics/JDM-bonus-dot.gif">
2012-02-13 12:18:23	jogadores 'guest' e 'ceramisch' ganharam <b>125</b> créditos com <b>'prático'</b>. <img src="pics/JDM-bonus-dot.gif">
2012-02-13 12:19:20	jogadores 'rogergranada' e 'ceramisch' ganharam <b>313</b> créditos com <b>'palco'</b> \n\tpara a relação 'idéia associada'. Jackpot ! <img src="pics/JDM-bonus-dot.gif">
2012-02-13 10:43:38	jogadores 'matbill' e 'ceramisch' ganharam <b>6</b> créditos com <b>'despachante'</b>. <img src="pics/JDM-bonus-dot2.gif">
2012-02-13 10:43:55	jogadores 'matbill' e 'ceramisch' ganharam <b>5</b> créditos com <b>'***'</b>.
2012-02-13 10:45:04	jogadores 'renataramisch' e 'ceramisch' ganharam <b>31</b> créditos com <b>'resultante'</b>. <img src="pics/JDM-bonus-dot2.gif">
2012-02-13 12:11:34	boas vindas a 'brunaantunes' que acabou de se registrar.
2012-02-13 12:19:20	O termo 'palco' acaba de ser capturado.
2012-02-13 12:20:25	jogadores 'lorreine' e 'brunaantunes' ganharam <b>63</b> créditos com <b>'aduzir'</b>. <img src="pics/JDM-bonus-dot.gif">
2012-02-13 12:20:28	jogadores 'brunaantunes' e 'ceramisch' ganharam <b>63</b> créditos com <b>'encaminhado'</b>. <img src="pics/JDM-bonus-dot.gif">
2012-02-13 12:23:53	jogadores 'rogergranada' e 'brunaantunes' ganharam <b>88</b> créditos com <b>'pessoa a provocar'</b>.
2012-02-13 12:25:22	jogadores 'rogergranada' e 'brunaantunes' ganharam <b>60</b> créditos com <b>'aparecer na lua cheia'</b>.
2012-02-13 12:26:44	jogadores 'Emmanuelle' e 'brunaantunes' ganharam <b>125</b> créditos com <b>'abrir a lata'</b>. <img src="pics/JDM-bonus-dot.gif">
2012-02-13 12:29:40	jogadores 'ceramisch' e 'brunaantunes' ganharam <b>56</b> créditos com <b>'suicídio'</b>.
2012-02-13 17:06:38	jogadores 'lorreine' e 'rogergranada' ganharam <b>370</b> créditos com <b>'doente'</b> \n\tpara a relação 'idéia associada'. Jackpot !
2012-02-13 17:06:38	jogadores 'renataramisch' e 'freitas' ganharam 4865 na loteria e compartilharam o prêmio... e ajudaram os demais jogadores.
2012-02-03 13:33:18	jogadores 'ceramisch' e 'Emmanuelle' ganharam <b>183</b> créditos com <b>'descansar'</b>.
2012-02-03 13:33:18	O termo 'descansar'  acaba de mudar de proprietário.
2012-02-03 13:34:28	jogadores 'lorreine' e 'Emmanuelle' ganharam <b>188</b> créditos com <b>'doente'</b>. <img src="pics/JDM-bonus-dot.gif">
2012-01-21 19:47:58	jogadores 'rogergranada' e 'denisao' ganharam <b>63</b> créditos com <b>'afinal'</b>. <img src="pics/JDM-bonus-dot.gif">
2012-02-03 13:35:21	jogadores 'rogergranada' e 'Emmanuelle' ganharam <b>63</b> créditos com <b>'parar composição'</b>.
2012-01-21 19:49:06	jogadores 'guest' e 'denisao' ganharam <b>60</b> créditos com <b>'desleal'</b>.
2012-01-21 19:50:31	jogadores 'rogergranada' e 'denisao' ganharam <b>63</b> créditos com <b>'colocar compra'</b>. <img src="pics/JDM-bonus-dot.gif">
2012-01-21 19:51:39	jogadores 'SweetJesusOnAStick' e 'denisao' ganharam <b>180</b> créditos com <b>'picanha'</b>.
2012-01-21 20:00:17	jogadores 'Emmanuelle' e 'denisao' ganharam <b>125</b> créditos com <b>'beleza'</b>. <img src="pics/JDM-bonus-dot.gif">
2012-01-21 20:02:01	jogadores 'rogergranada' e 'lorreine' ganharam <b>125</b> créditos com <b>'pop'</b>.
2012-01-21 20:03:54	jogadores 'rogergranada' e 'lorreine' ganharam <b>63</b> créditos com <b>'parar composição'</b>. <img src="pics/JDM-bonus-dot.gif">
2012-01-21 20:05:23	jogadores 'rogergranada' e 'lorreine' ganharam <b>120</b> créditos com <b>'terrestre'</b>.
2012-01-21 20:06:44	jogadores 'SweetJesusOnAStick' e 'lorreine' ganharam <b>180</b> créditos com <b>'iara'</b>.
2012-01-21 20:08:06	jogadores 'renataramisch' e 'lorreine' ganharam <b>185</b> créditos com <b>'amor'</b>.
2012-01-21 20:09:14	jogador 'ceramisch' deu um presente para 'lorreine'.
2012-01-21 20:09:47	jogador 'ceramisch' deu um presente para 'denisao'.
2012-01-21 20:11:11	jogadores 'rogergranada' e 'lorreine' ganharam <b>150</b> créditos com <b>'incomodar'</b>. <img src="pics/JDM-bonus-dot.gif">
2012-01-20 13:19:00	jogadores 'renataramisch' e 'ceramisch' ganharam <b>168</b> créditos com <b>'carro'</b>. <img src="pics/JDM-bonus-dot2.gif">
2012-01-20 13:20:21	jogadores 'renataramisch' e 'ceramisch' ganharam <b>219</b> créditos com <b>'sítio'</b> \n\tpara a relação 'genérico'. Jackpot ! <img src="pics/JDM-bonus-dot2.gif">
2012-01-30 16:55:05	O termo 'viagem' acaba de ser capturado.
2012-01-30 17:07:26	jogadores 'rogergranada' e 'guest' ganharam <b>60</b> créditos com <b>'subjetivo'</b>.
2012-02-03 13:17:12	jogadores 'SweetJesusOnAStick' e 'Emmanuelle' ganharam <b>100</b> créditos com <b>'redondeza'</b>. <img src="pics/JDM-bonus-dot.gif">
2012-02-03 13:18:22	jogadores 'lorreine' e 'Emmanuelle' ganharam <b>63</b> créditos com <b>'acabar de comer'</b>. <img src="pics/JDM-bonus-dot.gif">
2012-01-28 11:45:42	jogadores 'freitas' e 'ceramisch' ganharam <b>32</b> créditos com <b>'matador'</b>. <img src="pics/JDM-bonus-dot2.gif">
2012-01-29 21:59:13	jogadores 'renataramisch' e 'ceramisch' ganharam <b>184</b> créditos com <b>'armário'</b>. <img src="pics/JDM-bonus-dot2.gif">
2012-02-03 13:19:34	jogadores 'renataramisch' e 'Emmanuelle' ganharam <b>63</b> créditos com <b>'reforçar'</b>.
2012-02-03 13:22:15	jogadores 'ceramisch' e 'Emmanuelle' ganharam <b>181</b> créditos com <b>'acreditar'</b>.
2012-02-03 13:22:15	O termo 'acreditar'  acaba de mudar de proprietário.
2012-02-03 13:23:27	jogador 'Emmanuelle' investiu em <b>'absolutamente'</b>.
2012-02-03 13:26:53	jogador 'Emmanuelle' investiu em <b>'abridor'</b>.
2012-02-03 13:29:40	jogadores 'rogergranada' e 'Emmanuelle' ganharam <b>63</b> créditos com <b>'quebrar regime'</b>. <img src="pics/JDM-bonus-dot.gif">
2012-02-03 13:32:08	jogadores 'lorreine' e 'Emmanuelle' ganharam <b>250</b> créditos com <b>'acionista'</b> \n\tpara a relação 'idéia associada'. Jackpot ! <img src="pics/JDM-bonus-dot.gif">
2012-02-03 13:32:08	O termo 'acionista' acaba de ser capturado.
2012-01-28 11:49:56	jogadores 'freitas' e 'ceramisch' ganharam <b>46</b> créditos com <b>'moda'</b>.
2012-01-28 11:48:41	jogadores 'renataramisch' e 'ceramisch' ganharam <b>117</b> créditos com <b>'doente'</b>. <img src="pics/JDM-bonus-dot2.gif">
2012-01-26 20:15:06	jogadores 'rogergranada' e 'francielizanon' ganharam <b>13</b> créditos com <b>'mus'</b>. <img src="pics/JDM-bonus-dot.gif">
2012-01-26 20:16:25	jogadores 'rogergranada' e 'francielizanon' ganharam <b>125</b> créditos com <b>'pureza'</b>. <img src="pics/JDM-bonus-dot.gif">
2012-01-29 21:37:37	o jogador 'denisao' ganhou um processo contra o jogador 'guest' com a palavra 'ajustável'.
2012-01-29 21:41:32	jogadores 'renataramisch' e 'ceramisch' ganharam <b>45</b> créditos com <b>'inscrito'</b>. <img src="pics/JDM-bonus-dot2.gif">
2012-01-29 21:51:32	jogadores 'renataramisch' e 'ceramisch' ganharam <b>44</b> créditos com <b>'imigrante'</b>. <img src="pics/JDM-bonus-dot2.gif">
2012-01-29 21:54:27	jogadores 'matbill' e 'ceramisch' ganharam <b>98</b> créditos com <b>'amassar'</b>. <img src="pics/JDM-bonus-dot2.gif">
2012-02-03 13:12:34	jogadores 'rogergranada' e 'Emmanuelle' ganharam <b>123</b> créditos com <b>'viagem'</b>.
2012-01-30 16:52:00	jogadores 'freitas' e 'SweetJesusOnAStick' ganharam <b>176</b> créditos com <b>'ventilador'</b>.
2012-02-03 13:13:44	jogadores 'rogergranada' e 'Emmanuelle' ganharam <b>60</b> créditos com <b>'sistematizar'</b>.
2012-01-30 15:39:08	boas vindas a 'raimoura' que acabou de se registrar.
2012-01-30 16:53:38	jogadores 'rogergranada' e 'SweetJesusOnAStick' ganharam <b>248</b> créditos com <b>'animal'</b> \n\tpara a relação 'idéia associada'. Jackpot !
2012-01-30 16:54:03	jogador 'SweetJesusOnAStick' invocou uma palavra...
2012-01-30 16:55:05	jogadores 'rogergranada' e 'SweetJesusOnAStick' ganharam <b>250</b> créditos com <b>'viagem'</b> \n\tpara a relação 'idéia associada'. Jackpot ! <img src="pics/JDM-bonus-dot.gif">
2012-02-03 12:58:22	jogador 'Emmanuelle' investiu em <b>'prover'</b>.
2012-02-03 12:59:41	jogador 'Emmanuelle' investiu em <b>'calmo'</b>.
2012-02-03 13:01:04	jogadores 'rogergranada' e 'Emmanuelle' ganharam <b>63</b> créditos com <b>'assoprar'</b>. <img src="pics/JDM-bonus-dot.gif">
2012-02-03 13:10:12	Emmanuelle ajudou a alcançar a marca de 100 relações. Bravo ! + 20 Honra
2012-02-03 13:10:12	jogadores 'rogergranada' e 'Emmanuelle' ganharam <b>125</b> créditos com <b>'abdominal'</b>. <img src="pics/JDM-bonus-dot.gif">
2012-01-31 15:49:30	jogador 'SweetJesusOnAStick' investiu em <b>'redondeza'</b>.
2012-01-31 15:50:36	jogadores 'rogergranada' e 'SweetJesusOnAStick' ganharam <b>305</b> créditos com <b>'parágrafo'</b> \n\tpara a relação 'idéia associada'. Jackpot !
2012-01-31 15:50:36	O termo 'parágrafo' acaba de ser capturado.
2012-02-03 13:07:36	jogadores 'guest' e 'Emmanuelle' ganharam <b>122</b> créditos com <b>'pássaro'</b>.
2012-02-03 13:09:01	jogadores 'ceramisch' e 'Emmanuelle' ganharam <b>57</b> créditos com <b>'suicídio'</b>.
2012-02-13 17:09:14	jogadores 'Emmanuelle' e 'rogergranada' ganharam <b>125</b> créditos com <b>'albuquerque'</b>. <img src="pics/JDM-bonus-dot.gif">
2012-02-13 17:06:49	O termo 'doente' acaba de ser capturado.
2012-02-10 15:02:38	jogadores 'freitas' e 'Emmanuelle' ganharam <b>60</b> créditos com <b>'pedir'</b>.
2012-02-10 15:05:17	jogador 'Emmanuelle' investiu em <b>'sapateira'</b>.
2012-02-10 15:06:29	jogador 'Emmanuelle' investiu em <b>'companheiro'</b>.
2012-02-10 15:07:39	jogador 'Emmanuelle' investiu em <b>'admirável'</b>.
2012-02-13 17:10:33	jogadores 'lorreine' e 'rogergranada' ganharam <b>187</b> créditos com <b>'acabar de comer'</b>.
2012-02-13 17:13:11	jogadores 'SweetJesusOnAStick' e 'rogergranada' ganharam <b>98</b> créditos com <b>'redondeza'</b>.
2012-02-27 15:53:27	jogadores 'rogergranada' e 'ceramisch' ganharam <b>117</b> créditos com <b>'anil'</b>.
2012-02-28 03:47:30	jogadores 'Emmanuelle' e 'rogergranada' ganharam <b>122</b> créditos com <b>'abrir a lata'</b>.
2012-02-28 03:49:03	jogadores 'Emmanuelle' e 'rogergranada' ganharam <b>59</b> créditos com <b>'companheiro'</b>.
2012-02-18 17:37:33	jogador 'ceramisch' deu um presente para 'renataramisch'.
2012-02-18 17:37:43	jogador 'ceramisch' deu um presente para 'renataramisch'.
2012-02-18 17:42:25	jogador 'ceramisch' deu um presente para 'brunaantunes'.
2012-02-27 14:45:14	jogadores 'renataramisch' e 'ceramisch' ganharam <b>39</b> créditos com <b>'brisa'</b>. <img src="pics/JDM-bonus-dot2.gif">
2012-02-13 13:48:57	jogadores 'SweetJesusOnAStick' e 'brunaantunes' ganharam <b>59</b> créditos com <b>'desenho'</b>.
2012-02-27 15:25:50	jogador 'francielizanon' investiu em <b>'telefone celular'</b>.
2012-02-13 13:50:32	jogadores 'freitas' e 'brunaantunes' ganharam <b>174</b> créditos com <b>'ventilador'</b>.
2012-02-13 13:53:52	jogadores 'freitas' e 'brunaantunes' ganharam <b>119</b> créditos com <b>'escroto'</b>.
2012-02-13 13:55:32	jogadores 'Emmanuelle' e 'brunaantunes' ganharam <b>60</b> créditos com <b>'abridor'</b>.
2012-02-13 13:57:05	jogadores 'rogergranada' e 'brunaantunes' ganharam <b>63</b> créditos com <b>'quebrar regime'</b>.
2012-02-13 16:26:16	jogadores 'rogergranada' e 'brunaantunes' ganharam <b>63</b> créditos com <b>'jean'</b>. <img src="pics/JDM-bonus-dot.gif">
2012-02-13 16:27:57	jogadores 'freitas' e 'brunaantunes' ganharam <b>59</b> créditos com <b>'pedir'</b>.
2012-02-13 16:29:35	jogadores 'rogergranada' e 'brunaantunes' ganharam <b>63</b> créditos com <b>'evitar'</b>. <img src="pics/JDM-bonus-dot.gif">
2012-02-13 16:36:12	jogador 'brunaantunes' investiu em <b>'pai'</b>.
2012-02-13 16:37:40	jogadores 'Emmanuelle' e 'brunaantunes' ganharam <b>63</b> créditos com <b>'companheiro'</b>. <img src="pics/JDM-bonus-dot.gif">
2012-02-27 15:47:30	jogadores 'Emmanuelle' e 'ceramisch' ganharam <b>185</b> créditos com <b>'sapateira'</b>.
2012-02-27 15:48:11	jogadores 'francielizanon' e 'ceramisch' ganharam <b>213</b> créditos com <b>'telefone celular'</b> \n\tpara a relação 'idéia associada'. Jackpot ! <img src="pics/JDM-bonus-dot.gif">
2012-02-27 15:49:26	jogadores 'rogergranada' e 'ceramisch' ganharam <b>125</b> créditos com <b>'presente'</b>.
2012-02-27 15:50:01	jogadores 'rogergranada' e 'ceramisch' ganharam <b>12</b> créditos com <b>'mus'</b>.
2012-02-27 15:51:05	jogadores 'Emmanuelle' e 'ceramisch' ganharam <b>63</b> créditos com <b>'admirável'</b>. <img src="pics/JDM-bonus-dot.gif">
2012-02-27 15:51:59	jogadores 'brunaantunes' e 'ceramisch' ganharam <b>63</b> créditos com <b>'pai'</b>. <img src="pics/JDM-bonus-dot.gif">
2012-04-04 11:29:36	jogador 'ceramisch' deu um presente para 'SweetJesusOnAStick'.
2012-04-03 14:51:49	jogadores 'ceramisch' e 'rogergranada' ganharam <b>63</b> créditos com <b>'abrir garrafa de vinho'</b>. <img src="pics/JDM-bonus-dot.gif">
2012-02-27 14:39:56	jogadores 'renataramisch' e 'ceramisch' ganharam <b>86</b> créditos com <b>'estrada'</b>. <img src="pics/JDM-bonus-dot2.gif">
2012-02-27 14:41:20	jogadores 'renataramisch' e 'ceramisch' ganharam <b>42</b> créditos com <b>'tradução'</b>. <img src="pics/JDM-bonus-dot2.gif">
2012-02-27 14:42:32	jogadores 'matbill' e 'ceramisch' ganharam <b>162</b> créditos com <b>'árvore'</b>.
2012-02-22 15:57:23	jogadores 'Emmanuelle' e 'francielizanon' ganharam <b>63</b> créditos com <b>'sapateira'</b>. <img src="pics/JDM-bonus-dot.gif">
2012-02-27 14:43:49	jogadores 'renataramisch' e 'ceramisch' ganharam <b>120</b> créditos com <b>'corrente'</b>. <img src="pics/JDM-bonus-dot2.gif">
2012-02-22 15:58:10	jogadores 'Emmanuelle' e 'francielizanon' ganharam <b>63</b> créditos com <b>'filhote'</b>. <img src="pics/JDM-bonus-dot.gif">
2012-02-19 16:08:16	jogadores 'renataramisch' e 'ceramisch' ganharam <b>94</b> créditos com <b>'criança'</b>. <img src="pics/JDM-bonus-dot2.gif">
2012-02-19 16:09:22	jogadores 'freitas' e 'ceramisch' ganharam <b>63</b> créditos com <b>'relação'</b>. <img src="pics/JDM-bonus-dot2.gif">
2012-02-18 19:23:28	jogadores 'rogergranada' e 'ceramisch' ganharam <b>60</b> créditos com <b>'incomodar'</b>.
2012-02-18 19:22:14	jogadores 'rogergranada' e 'ceramisch' ganharam <b>63</b> créditos com <b>'quantidade'</b>. <img src="pics/JDM-bonus-dot.gif">
2012-02-18 19:26:26	jogadores 'Emmanuelle' e 'ceramisch' ganharam <b>63</b> créditos com <b>'comida ser preparada'</b>. <img src="pics/JDM-bonus-dot.gif">
2012-02-18 19:19:32	jogadores 'Emmanuelle' e 'ceramisch' ganharam <b>125</b> créditos com <b>'chaveiro'</b>. <img src="pics/JDM-bonus-dot.gif">
2012-02-18 17:50:57	jogadores 'renataramisch' e 'ceramisch' ganharam <b>186</b> créditos com <b>'agressão'</b>. <img src="pics/JDM-bonus-dot2.gif">
2012-02-18 19:20:18	jogadores 'brunaantunes' e 'ceramisch' ganharam <b>185</b> créditos com <b>'companheiro'</b>.
2012-02-18 17:39:34	jogador 'ceramisch' deu um presente para 'SweetJesusOnAStick'.
2012-02-22 15:59:05	jogadores 'Emmanuelle' e 'francielizanon' ganharam <b>125</b> créditos com <b>'absolutamente'</b>. <img src="pics/JDM-bonus-dot.gif">
2012-02-18 17:40:47	jogador 'ceramisch' deu um presente para 'SweetJesusOnAStick'.
2012-02-18 17:44:41	jogador 'ceramisch' deu um presente para 'freitas'.
2012-02-18 17:44:58	jogador 'ceramisch' deu um presente para 'freitas'.
2012-02-18 17:45:06	jogador 'ceramisch' deu um presente para 'mamiza'.
2012-02-19 16:10:59	jogadores 'Emmanuelle' e 'ceramisch' ganharam <b>122</b> créditos com <b>'abrir a lata'</b>.
2012-04-03 13:54:15	jogadores 'rogergranada' e 'ceramisch' ganharam <b>248</b> créditos com <b>'abdominal'</b> \n\tpara a relação 'idéia associada'. Jackpot !
2012-04-03 14:55:38	jogadores 'Emmanuelle' e 'rogergranada' ganharam <b>120</b> créditos com <b>'absolutamente'</b>.
2012-04-03 14:56:56	jogadores 'ceramisch' e 'rogergranada' ganharam <b>150</b> créditos com <b>'amante da paz'</b>. <img src="pics/JDM-bonus-dot.gif">
2012-04-03 14:58:20	jogadores 'Emmanuelle' e 'rogergranada' ganharam <b>60</b> créditos com <b>'chaveiro'</b>.
2012-02-27 15:21:03	jogadores 'lorreine' e 'francielizanon' ganharam <b>207</b> créditos com <b>'acionista'</b> \n\tpara a relação 'idéia associada'. Jackpot !
2012-02-27 15:22:22	jogadores 'guest' e 'francielizanon' ganharam <b>59</b> créditos com <b>'desleal'</b>.
2012-02-27 14:47:20	jogadores 'matbill' e 'ceramisch' ganharam <b>6</b> créditos com <b>'superintendência'</b>. <img src="pics/JDM-bonus-dot2.gif">
2012-02-27 15:23:25	francielizanon ajudou a alcançar a marca de 100 relações. Bravo ! + 20 Honra
2012-02-27 14:50:34	jogadores 'Emmanuelle' e 'ceramisch' ganharam <b>63</b> créditos com <b>'albuquerque'</b>.
2012-02-27 14:46:41	jogador 'ceramisch' deu um presente para 'francielizanon'.
2012-02-27 14:46:54	jogador 'ceramisch' deu um presente para 'Emmanuelle'.
2012-02-27 14:52:28	jogadores 'Emmanuelle' e 'ceramisch' ganharam <b>125</b> créditos com <b>'doutor'</b>. <img src="pics/JDM-bonus-dot.gif">
2012-02-27 15:23:25	jogadores 'ceramisch' e 'francielizanon' ganharam <b>375</b> créditos com <b>'porta'</b> \n\tpara a relação 'idéia associada'. Jackpot ! <img src="pics/JDM-bonus-dot.gif">
2012-02-27 15:23:25	O termo 'porta' acaba de ser capturado.
2012-02-27 15:24:29	jogadores 'rogergranada' e 'francielizanon' ganharam <b>63</b> créditos com <b>'abater'</b>. <img src="pics/JDM-bonus-dot.gif">
2012-04-03 14:59:37	jogadores 'ceramisch' e 'rogergranada' ganharam <b>120</b> créditos com <b>'quiçá'</b>.
2012-03-29 22:46:07	jogadores 'Emmanuelle' e 'guest' ganharam <b>125</b> créditos com <b>'garganta'</b>. <img src="pics/JDM-bonus-dot.gif">
2012-03-29 22:47:14	jogadores 'ceramisch' e 'guest' ganharam <b>413</b> créditos com <b>'quiçá'</b> \n\tpara a relação 'idéia associada'. Jackpot ! <img src="pics/JDM-bonus-dot.gif">
2012-03-12 12:35:53	jogadores 'matbill' e 'ceramisch' ganharam <b>188</b> créditos com <b>'navio'</b>. <img src="pics/JDM-bonus-dot2.gif">
2012-03-01 11:04:57	jogadores 'renataramisch' e 'ceramisch' ganharam <b>6</b> créditos com <b>'marin'</b>. <img src="pics/JDM-bonus-dot2.gif">
2012-03-01 11:05:31	jogadores 'renataramisch' e 'ceramisch' ganharam <b>74</b> créditos com <b>'não usar camisa'</b>.
2012-03-01 11:09:17	jogadores 'renataramisch' e 'ceramisch' ganharam <b>77</b> créditos com <b>'merenda'</b>. <img src="pics/JDM-bonus-dot2.gif">
2012-03-02 10:31:02	jogadores 'francielizanon' e 'SweetJesusOnAStick' ganharam <b>60</b> créditos com <b>'telefone celular'</b>.
2012-03-12 12:37:13	jogadores 'renataramisch' e 'ceramisch' ganharam <b>36</b> créditos com <b>'temperatura'</b>. <img src="pics/JDM-bonus-dot2.gif">
2012-03-12 12:38:21	jogadores 'matbill' e 'ceramisch' ganharam <b>35</b> créditos com <b>'guerra'</b>. <img src="pics/JDM-bonus-dot2.gif">
2012-03-12 12:40:58	jogadores 'renataramisch' e 'ceramisch' ganharam <b>170</b> créditos com <b>'motel'</b>.
2012-04-03 15:02:16	jogadores 'ceramisch' e 'rogergranada' ganharam <b>125</b> créditos com <b>'encantar homem'</b>. <img src="pics/JDM-bonus-dot.gif">
2012-04-03 19:07:59	jogadores 'ceramisch' e 'rogergranada' ganharam <b>188</b> créditos com <b>'abusivo'</b>. <img src="pics/JDM-bonus-dot.gif">
2012-04-03 20:26:23	jogadores 'ceramisch' e 'rogergranada' ganharam <b>375</b> créditos com <b>'colégio'</b> \n\tpara a relação 'idéia associada'. Jackpot ! <img src="pics/JDM-bonus-dot.gif">
2012-04-03 20:26:23	O termo 'colégio' acaba de ser capturado.
2012-04-03 20:27:47	jogadores 'ceramisch' e 'rogergranada' ganharam <b>63</b> créditos com <b>'decorar'</b>. <img src="pics/JDM-bonus-dot.gif">
2012-04-03 21:01:48	boas vindas a 'vidago' que acabou de se registrar.
2012-03-29 14:26:09	jogadores 'matbill' e 'ceramisch' ganharam <b>130</b> créditos com <b>'cachaça'</b>.
2012-03-29 14:28:17	jogadores 'SweetJesusOnAStick' e 'ceramisch' ganharam <b>241</b> créditos com <b>'alimentar pessoa'</b> \n\tpara a relação 'idéia associada'. Jackpot !
2012-03-23 14:16:25	jogadores 'SweetJesusOnAStick' e 'guest' ganharam <b>117</b> créditos com <b>'desenho'</b>.
2012-03-12 12:33:31	jogadores 'rogergranada' e 'ceramisch' ganharam <b>125</b> créditos com <b>'abranger'</b>. <img src="pics/JDM-bonus-dot.gif">
2012-03-29 22:47:15	O termo 'quiçá' acaba de ser capturado.
2012-04-03 15:00:57	jogadores 'ceramisch' e 'rogergranada' ganharam <b>188</b> créditos com <b>'porção de mexilhão'</b>. <img src="pics/JDM-bonus-dot.gif">
2012-04-04 11:29:55	jogador 'ceramisch' deu um presente para 'francielizanon'.
2012-04-04 11:30:08	jogador 'ceramisch' deu um presente para 'renataramisch'.
2012-04-04 11:30:19	jogador 'ceramisch' deu um presente para 'renataramisch'.
2012-04-04 11:36:10	jogador 'ceramisch' deu um presente para 'mamiza'.
2012-04-03 14:48:01	jogadores 'Emmanuelle' e 'rogergranada' ganharam <b>59</b> créditos com <b>'sapateira'</b>.
2012-04-03 14:50:35	jogadores 'ceramisch' e 'rogergranada' ganharam <b>63</b> créditos com <b>'esmorecer'</b>. <img src="pics/JDM-bonus-dot.gif">
2012-04-04 11:34:30	jogador 'ceramisch' deu um presente para 'freitas'.
2012-04-04 11:34:36	jogador 'ceramisch' deu um presente para 'lorreine'.
2012-04-04 11:34:42	jogador 'ceramisch' deu um presente para 'lorreine'.
2012-04-04 11:31:59	jogador 'ceramisch' deu um presente para 'brunaantunes'.
2012-04-04 11:35:02	jogador 'ceramisch' deu um presente para 'denisao'.
2012-04-04 11:35:19	jogador 'ceramisch' deu um presente para 'denisao'.
2012-04-04 11:35:57	jogador 'ceramisch' deu um presente para 'freitas'.
2012-04-04 11:31:42	jogador 'ceramisch' deu um presente para 'brunaantunes'.
2012-04-04 11:34:45	jogador 'ceramisch' deu um presente para 'lorreine'.
2012-04-04 11:31:20	jogador 'ceramisch' deu um presente para 'Emmanuelle'.
2012-04-04 11:30:51	jogador 'ceramisch' deu um presente para 'vidago'.
2011-12-29 20:36:37	jogadores 'renataramisch' e 'freitas' ganharam <b>213</b> créditos com <b>'restaurante popular'</b> \n\tpara a relação 'idéia associada'. Jackpot ! <img src="pics/JDM-bonus-dot.gif">
2011-12-29 20:33:32	O termo 'tradução' acaba de ser capturado.
2011-12-29 20:35:20	jogadores 'renataramisch' e 'freitas' ganharam <b>188</b> créditos com <b>'tradutor'</b>. <img src="pics/JDM-bonus-dot.gif">
2011-12-29 20:33:32	jogadores 'renataramisch' e 'freitas' ganharam <b>375</b> créditos com <b>'tradução'</b> \n\tpara a relação 'idéia associada'. Jackpot ! <img src="pics/JDM-bonus-dot.gif">
2011-12-29 20:32:08	jogadores 'Jonesvg' e 'freitas' ganharam <b>125</b> créditos com <b>'enfeitar'</b>. <img src="pics/JDM-bonus-dot.gif">
2011-12-29 20:30:22	O termo 'vento' acaba de ser capturado.
2011-12-29 20:30:22	jogadores 'renataramisch' e 'freitas' ganharam <b>313</b> créditos com <b>'vento'</b> \n\tpara a relação 'idéia associada'. Jackpot ! <img src="pics/JDM-bonus-dot.gif">
2011-12-29 20:28:14	jogadores 'renataramisch' e 'freitas' ganharam <b>149</b> créditos com <b>'vampiro'</b>. <img src="pics/JDM-bonus-dot2.gif">
2011-12-29 20:26:50	jogadores 'renataramisch' e 'freitas' ganharam <b>228</b> créditos com <b>'motel'</b> \n\tpara a relação 'genérico'. Jackpot ! <img src="pics/JDM-bonus-dot2.gif">
2011-12-29 20:25:24	o jogador 'helenacaseli' ganhou um processo contra o jogador 'guest' com a palavra 'óleo de massagem'.
2011-12-29 20:25:24	o jogador 'helenacaseli' ganhou um processo contra o jogador 'guest' com a palavra 'caixa de leite longa vida'.
2011-12-29 20:25:24	o jogador 'helenacaseli' ganhou um processo contra o jogador 'matbill' com a palavra 'procurar tratamento médico'.
2011-12-29 20:25:23	o jogador 'matbill' ganhou um processo contra o jogador 'helenacaseli' com a palavra 'humana'.
2011-12-29 20:25:23	o jogador 'helenacaseli' ganhou um processo contra o jogador 'guest' com a palavra 'gorro'.
2011-12-29 20:25:23	o jogador 'guest' ganhou um processo contra o jogador 'helenacaseli' com a palavra 'anelar'.
2011-12-29 17:24:27	jogadores 'freitas' e 'renataramisch' ganharam <b>120</b> créditos com <b>'tatuagem'</b>.
2011-12-29 16:29:07	jogadores 'freitas' e 'renataramisch' ganharam <b>125</b> créditos com <b>'pedir'</b>. <img src="pics/JDM-bonus-dot.gif">
2011-12-29 12:31:44	jogadores 'renataramisch' e 'SweetJesusOnAStick' ganharam <b>120</b> créditos com <b>'seguimento'</b>.
2011-12-29 12:30:24	o jogador 'mfinatto' ganhou um processo contra o jogador 'guest' com a palavra 'gorro'.
2011-12-29 11:48:46	jogadores 'freitas' e 'SweetJesusOnAStick' ganharam <b>188</b> créditos com <b>'tatuagem'</b>. <img src="pics/JDM-bonus-dot.gif">
2011-12-29 11:46:05	o jogador 'ceramisch' ganhou um processo contra o jogador 'gleise' com a palavra 'aconchegar'.
2011-12-29 03:45:57	jogadores 'guest' e 'freitas' ganharam <b>60</b> créditos com <b>'trinidad'</b>.
2011-12-29 03:42:01	jogador 'freitas' investiu em <b>'pedir'</b>.
2011-12-29 03:43:24	jogadores 'matbill' e 'freitas' ganharam <b>63</b> créditos com <b>'alencar'</b>. <img src="pics/JDM-bonus-dot.gif">
2011-12-28 13:42:57	jogadores 'matbill' e 'francielizanon' ganharam <b>62</b> créditos com <b>'jardim'</b>.
2011-12-28 13:41:32	jogadores 'ceramisch' e 'francielizanon' ganharam <b>121</b> créditos com <b>'suicídio'</b>.
2011-12-28 12:28:07	jogadores 'freitas' e 'Jonesvg' ganharam <b>59</b> créditos com <b>'operação'</b>.
2011-12-28 23:58:30	jogador 'matbill' deu um presente para 'Emanuele'.
2011-12-29 01:11:10	jogador 'freitas' investiu em <b>'tatuagem'</b>.
2011-12-28 23:49:15	jogador 'matbill' deu um presente para 'renataramisch'.
2011-12-28 23:51:30	jogador 'matbill' deu um presente para 'freitas'.
2011-12-28 23:57:31	jogadores 'ceramisch' e 'freitas' ganharam <b>149</b> créditos com <b>'transmissor'</b>. <img src="pics/JDM-bonus-dot2.gif">
2011-12-28 23:55:12	jogadores 'ceramisch' e 'freitas' ganharam <b>21</b> créditos com <b>'abertamente'</b>. <img src="pics/JDM-bonus-dot2.gif">
2012-01-06 18:13:53	jogadores 'freitas' e 'rogergranada' ganharam <b>117</b> créditos com <b>'aberto'</b>.
2012-01-06 18:12:38	jogadores 'tpeninha' e 'rogergranada' ganharam <b>176</b> créditos com <b>'redor'</b>.
2012-01-06 18:11:19	jogadores 'freitas' e 'rogergranada' ganharam <b>58</b> créditos com <b>'operação'</b>.
2012-01-06 18:10:06	jogadores 'renataramisch' e 'rogergranada' ganharam <b>12</b> créditos com <b>'alain'</b>.
2012-01-06 18:09:21	O termo 'europa'  acaba de mudar de proprietário.
2012-01-06 18:09:21	jogadores 'renataramisch' e 'rogergranada' ganharam <b>243</b> créditos com <b>'europa'</b> \n\tpara a relação 'idéia associada'. Jackpot !
2012-01-06 18:08:01	jogadores 'freitas' e 'rogergranada' ganharam <b>180</b> créditos com <b>'ventilador'</b>.
2012-01-06 18:06:43	jogadores 'renataramisch' e 'rogergranada' ganharam <b>63</b> créditos com <b>'reforçar'</b>. <img src="pics/JDM-bonus-dot.gif">
2012-01-06 14:30:17	jogadores 'guest' e 'rogergranada' ganharam <b>56</b> créditos com <b>'albino'</b>.
2012-01-06 14:28:56	jogadores 'freitas' e 'rogergranada' ganharam <b>120</b> créditos com <b>'pedir'</b>.
2012-01-06 14:27:39	jogadores 'freitas' e 'rogergranada' ganharam <b>59</b> créditos com <b>'comissão'</b>.
2012-01-06 14:26:20	O termo 'pizza de atum' acaba de ser capturado.
2012-01-06 14:26:20	jogadores 'renataramisch' e 'rogergranada' ganharam <b>313</b> créditos com <b>'pizza de atum'</b> \n\tpara a relação 'idéia associada'. Jackpot ! <img src="pics/JDM-bonus-dot.gif">
2012-01-06 14:23:49	jogadores 'SweetJesusOnAStick' e 'rogergranada' ganharam <b>188</b> créditos com <b>'alimentar pessoa'</b>. <img src="pics/JDM-bonus-dot.gif">
2012-01-06 14:15:58	jogadores 'renataramisch' e 'rogergranada' ganharam <b>62</b> créditos com <b>'sufocar'</b>.
2012-01-06 14:14:36	jogadores 'renataramisch' e 'rogergranada' ganharam <b>120</b> créditos com <b>'vento'</b>.
2012-01-06 14:13:19	jogadores 'guest' e 'rogergranada' ganharam <b>56</b> créditos com <b>'praticar exercício'</b>.
2012-01-06 14:12:04	jogadores 'freitas' e 'rogergranada' ganharam <b>121</b> créditos com <b>'tatuagem'</b>.
2012-01-06 14:09:28	jogadores 'renataramisch' e 'rogergranada' ganharam <b>122</b> créditos com <b>'abençoar'</b>.
2012-01-06 14:08:12	O termo 'homem assumir paternidade' acaba de ser capturado.
2012-01-06 14:08:12	jogadores 'renataramisch' e 'rogergranada' ganharam <b>297</b> créditos com <b>'homem assumir paternidade'</b> \n\tpara a relação 'idéia associada'. Jackpot !
2012-01-06 14:06:45	jogadores 'renataramisch' e 'rogergranada' ganharam <b>63</b> créditos com <b>'ambos'</b>. <img src="pics/JDM-bonus-dot.gif">
2012-01-06 14:05:27	jogadores 'renataramisch' e 'rogergranada' ganharam <b>122</b> créditos com <b>'alternativo'</b>.
2012-01-06 14:03:26	O termo 'escroto'  acaba de mudar de proprietário.
2012-01-06 14:03:26	jogadores 'freitas' e 'rogergranada' ganharam <b>235</b> créditos com <b>'escroto'</b> \n\tpara a relação 'idéia associada'. Jackpot !
2012-01-06 14:02:11	jogadores 'renataramisch' e 'rogergranada' ganharam <b>147</b> créditos com <b>'tradutor'</b>.
2012-01-06 14:00:53	jogadores 'SweetJesusOnAStick' e 'rogergranada' ganharam <b>188</b> créditos com <b>'desenho'</b>. <img src="pics/JDM-bonus-dot.gif">
2012-01-04 15:03:11	jogadores 'renataramisch' e 'SweetJesusOnAStick' ganharam <b>242</b> créditos com <b>'almôndega'</b> \n\tpara a relação 'idéia associada'. Jackpot !
2012-01-04 13:02:02	jogador 'SweetJesusOnAStick' comprou novamente uma partida <b>'iara'</b>.
2012-01-04 13:01:21	O termo 'iara' acaba de ser capturado.
2012-01-04 13:01:21	jogadores 'renataramisch' e 'SweetJesusOnAStick' ganharam <b>250</b> créditos com <b>'iara'</b> \n\tpara a relação 'idéia associada'. Jackpot ! <img src="pics/JDM-bonus-dot.gif">
2012-01-04 00:21:49	jogadores 'SweetJesusOnAStick' e 'ceramisch' ganharam <b>188</b> créditos com <b>'picanha'</b>. <img src="pics/JDM-bonus-dot.gif">
2012-01-04 00:21:49	ceramisch ajudou a alcançar a marca de 1000 relações. Bravo ! + 100 Honra
2012-01-03 14:27:28	O termo 'pescador' acaba de ser capturado.
2012-01-02 16:41:28	jogadores 'tpeninha' e 'SweetJesusOnAStick' ganharam <b>118</b> créditos com <b>'redor'</b>.
2012-01-02 16:39:38	o jogador 'SweetJesusOnAStick' ganhou um processo contra o jogador 'Emanuele' com a palavra 'novela'.
2012-01-01 14:30:11	O termo 'consultado' acaba de ser capturado.
2012-01-01 14:30:11	jogadores 'renataramisch' e 'SweetJesusOnAStick' ganharam <b>307</b> créditos com <b>'consultado'</b> \n\tpara a relação 'idéia associada'. Jackpot !
2012-01-01 14:28:30	jogadores 'renataramisch' e 'SweetJesusOnAStick' ganharam <b>125</b> créditos com <b>'homem assumir paternidade'</b>. <img src="pics/JDM-bonus-dot.gif">
2011-12-30 17:53:32	jogador 'SweetJesusOnAStick' investiu em <b>'picanha'</b>.
2012-01-03 14:27:28	jogadores 'renataramisch' e 'SweetJesusOnAStick' ganharam <b>313</b> créditos com <b>'pescador'</b> \n\tpara a relação 'idéia associada'. Jackpot ! <img src="pics/JDM-bonus-dot.gif">
2012-01-03 14:22:57	jogador 'SweetJesusOnAStick' investiu em <b>'desenho'</b>.
2012-01-03 08:19:35	o jogador 'renataramisch' ganhou um processo contra o jogador 'helenacaseli' com a palavra 'aluguer'.
2012-01-02 20:13:14	jogador 'matbill' deu um presente para 'ceramisch'.
2012-01-03 08:19:34	o jogador 'renataramisch' ganhou um processo contra o jogador 'guest' com a palavra 'apresentação'.
2012-01-04 00:10:15	jogadores 'renataramisch' e 'ceramisch' ganharam <b>34</b> créditos com <b>'cinza'</b>. <img src="pics/JDM-bonus-dot2.gif">
2012-01-03 21:40:09	jogadores 'renataramisch' e 'SweetJesusOnAStick' ganharam <b>123</b> créditos com <b>'vender brinquedo'</b>.
2012-01-03 21:38:56	jogadores 'renataramisch' e 'SweetJesusOnAStick' ganharam <b>213</b> créditos com <b>'sufocar'</b> \n\tpara a relação 'idéia associada'. Jackpot ! <img src="pics/JDM-bonus-dot.gif">
2012-01-04 00:14:03	jogadores 'matbill' e 'ceramisch' ganharam <b>45</b> créditos com <b>'mentira'</b>. <img src="pics/JDM-bonus-dot2.gif">
2012-01-04 00:11:51	jogadores 'renataramisch' e 'ceramisch' ganharam <b>100</b> créditos com <b>'matéria'</b>. <img src="pics/JDM-bonus-dot2.gif">
2012-01-04 00:19:29	jogadores 'renataramisch' e 'ceramisch' ganharam <b>31</b> créditos com <b>'cuba'</b>. <img src="pics/JDM-bonus-dot2.gif">
2012-01-04 00:17:27	jogadores 'matbill' e 'ceramisch' ganharam <b>44</b> créditos com <b>'surf'</b>. <img src="pics/JDM-bonus-dot2.gif">
2012-01-04 00:21:41	jogadores 'renataramisch' e 'matbill' ganharam <b>88</b> créditos com <b>'esponja'</b>. <img src="pics/JDM-bonus-dot2.gif">
2012-01-04 00:20:07	jogadores 'renataramisch' e 'matbill' ganharam <b>118</b> créditos com <b>'dente'</b>. <img src="pics/JDM-bonus-dot2.gif">
2012-01-04 12:58:53	jogador 'SweetJesusOnAStick' investiu em <b>'alimentar pessoa'</b>.
2012-01-04 13:00:07	jogadores 'renataramisch' e 'SweetJesusOnAStick' ganharam <b>62</b> créditos com <b>'albanês'</b>.
2012-01-04 00:25:59	jogadores 'freitas' e 'matbill' ganharam <b>181</b> créditos com <b>'ser'</b>.
2012-01-06 18:36:01	jogadores 'renataramisch' e 'rogergranada' ganharam <b>120</b> créditos com <b>'artista de cinema'</b>.
2012-01-06 18:33:27	jogadores 'renataramisch' e 'rogergranada' ganharam <b>60</b> créditos com <b>'agressor'</b>.
2012-01-06 18:24:32	jogadores 'renataramisch' e 'ceramisch' ganharam <b>60</b> créditos com <b>'ambos'</b>.
2012-01-06 18:32:04	jogadores 'SweetJesusOnAStick' e 'rogergranada' ganharam <b>183</b> créditos com <b>'picanha'</b>.
2012-01-07 13:34:06	O termo 'escroto'  acaba de mudar de proprietário.
2012-01-07 13:18:04	jogador &#39;ceramisch&#39; tem um novo amigo...
2012-01-07 13:17:49	jogadores 'matbill' e 'ceramisch' ganharam <b>247</b> créditos com <b>'nuvem'</b> \n\tpara a relação 'domínio'. Jackpot ! <img src="pics/JDM-bonus-dot2.gif">
2012-01-07 13:16:36	jogadores 'matbill' e 'ceramisch' ganharam <b>21</b> créditos com <b>'presentar'</b>. <img src="pics/JDM-bonus-dot2.gif">
2012-01-07 13:16:21	jogadores 'matbill' e 'ceramisch' ganharam <b>100</b> créditos com <b>'mesa com docinhos'</b>.
2012-01-07 13:13:53	jogador &#39;ceramisch&#39; tem um novo amigo...
2012-01-07 01:29:03	jogadores 'guest' e 'rogergranada' ganharam <b>60</b> créditos com <b>'fabricação'</b>.
2012-01-20 11:28:46	jogadores 'freitas' e 'Emmanuelle' ganharam <b>62</b> créditos com <b>'amor'</b>.
2012-01-20 11:27:35	jogadores 'SweetJesusOnAStick' e 'Emmanuelle' ganharam <b>183</b> créditos com <b>'alimentar pessoa'</b>.
2012-01-20 11:26:06	jogadores 'rogergranada' e 'Emmanuelle' ganharam <b>123</b> créditos com <b>'estar sonhando acordado'</b>.
2012-01-20 11:24:49	jogadores 'rogergranada' e 'Emmanuelle' ganharam <b>63</b> créditos com <b>'animal'</b>. <img src="pics/JDM-bonus-dot.gif">
2012-01-20 11:20:34	jogadores 'rogergranada' e 'Emmanuelle' ganharam <b>63</b> créditos com <b>'pop'</b>. <img src="pics/JDM-bonus-dot.gif">
2012-01-20 11:19:20	jogadores 'renataramisch' e 'Emmanuelle' ganharam <b>240</b> créditos com <b>'pizza de atum'</b> \n\tpara a relação 'idéia associada'. Jackpot !
2012-01-21 19:40:34	O termo 'tatuagem' acaba de ser capturado.
2012-01-21 19:40:33	jogadores 'freitas' e 'denisao' ganharam <b>302</b> créditos com <b>'tatuagem'</b> \n\tpara a relação 'idéia associada'. Jackpot !
2012-01-21 19:39:39	boas vindas a 'denisao' que acabou de se registrar.
2012-01-20 13:24:35	jogadores 'freitas' e 'ceramisch' ganharam <b>200</b> créditos com <b>'vampiro'</b> \n\tpara a relação 'genérico'. Jackpot !
2012-01-20 13:23:14	O termo 'banco' acaba de ser capturado.
2012-01-20 13:23:14	jogadores 'renataramisch' e 'ceramisch' ganharam <b>261</b> créditos com <b>'banco'</b> \n\tpara a relação 'genérico'. Jackpot ! <img src="pics/JDM-bonus-dot2.gif">
2012-01-20 13:20:46	jogador &#39;ceramisch&#39; tem um novo amigo...
2012-01-20 13:21:59	jogadores 'renataramisch' e 'ceramisch' ganharam <b>160</b> créditos com <b>'zangão'</b>. <img src="pics/JDM-bonus-dot2.gif">
2012-02-13 16:38:21	jogador 'brunaantunes' comprou novamente uma partida <b>'companheiro'</b>.
2012-02-18 17:36:54	jogadores 'SweetJesusOnAStick' e 'ceramisch' ganharam <b>246</b> créditos com <b>'redondeza'</b> \n\tpara a relação 'idéia associada'. Jackpot !
2012-02-18 17:28:43	jogadores 'renataramisch' e 'ceramisch' ganharam <b>222</b> créditos com <b>'prédio'</b> \n\tpara a relação 'genérico'. Jackpot ! <img src="pics/JDM-bonus-dot2.gif">
2012-02-18 17:33:40	O termo 'thriller' acaba de ser capturado.
2012-02-18 17:33:40	jogadores 'rogergranada' e 'ceramisch' ganharam <b>313</b> créditos com <b>'thriller'</b> \n\tpara a relação 'idéia associada'. Jackpot !
2012-02-18 17:35:46	jogadores 'Emmanuelle' e 'ceramisch' ganharam <b>63</b> créditos com <b>'melhorar'</b>. <img src="pics/JDM-bonus-dot.gif">
2012-02-18 17:41:48	jogador 'ceramisch' deu um presente para 'lorreine'.
2012-02-18 17:42:20	jogador 'ceramisch' deu um presente para 'brunaantunes'.
2012-04-04 11:38:16	jogador 'ceramisch' deu um presente para 'helenacaseli'.
2012-04-04 11:38:08	jogador 'ceramisch' deu um presente para 'helenacaseli'.
2012-04-04 11:38:02	jogador 'ceramisch' deu um presente para 'helenacaseli'.
2012-04-04 11:36:58	jogador 'ceramisch' deu um presente para 'Emanuele'.
2012-04-04 11:37:34	jogador 'ceramisch' deu um presente para 'Emanuele'.
2012-04-04 17:39:00	boas vindas a 'crcons' que acabou de se registrar.
2012-04-04 17:37:31	O termo 'acreditar'  acaba de mudar de proprietário.
2012-04-04 13:09:39	jogadores 'freitas' e 'francielizanon' ganharam <b>177</b> créditos com <b>'aberto'</b>.
2012-04-04 16:27:15	jogadores 'rogergranada' e 'guest' ganharam <b>63</b> créditos com <b>'temporal'</b>. <img src="pics/JDM-bonus-dot.gif">
2012-04-04 17:37:31	jogadores 'ceramisch' e 'guest' ganharam <b>243</b> créditos com <b>'acreditar'</b> \n\tpara a relação 'idéia associada'. Jackpot !
2012-04-04 17:40:22	jogador 'ceramisch' deu um presente para 'crcons'.
2012-04-04 17:40:34	jogador 'ceramisch' deu um presente para 'crcons'.
2011-12-27 19:37:57	jogadores 'freitas' e 'renataramisch' ganharam <b>180</b> créditos com <b>'aberto'</b>.
2011-12-27 19:39:29	jogadores 'freitas' e 'renataramisch' ganharam <b>180</b> créditos com <b>'comissão'</b>.
2011-12-27 19:43:14	jogador 'renataramisch' comprou uma competência.
2011-12-27 19:50:40	jogadores 'matbill' e 'renataramisch' ganharam <b>57</b> créditos com <b>'vendedor'</b>. <img src="pics/JDM-bonus-dot2.gif">
2011-12-27 19:53:42	jogadores 'ceramisch' e 'renataramisch' ganharam <b>505</b> créditos com <b>'cor'</b> \n\tpara a relação 'específico'. Jackpot ! <img src="pics/JDM-bonus-dot2.gif">
2011-12-27 19:53:42	O termo 'cor' acaba de ser capturado.
2011-12-27 19:54:13	jogador &#39;renataramisch&#39; tem um novo amigo...
2011-12-27 19:58:55	jogadores 'matbill' e 'renataramisch' ganharam <b>50</b> créditos com <b>'abelha'</b>.
2011-12-27 20:00:29	jogadores 'matbill' e 'renataramisch' ganharam <b>52</b> créditos com <b>'verão'</b>. <img src="pics/JDM-bonus-dot2.gif">
2011-12-27 20:01:58	jogadores 'matbill' e 'renataramisch' ganharam <b>51</b> créditos com <b>'céu'</b>. <img src="pics/JDM-bonus-dot2.gif">
2011-12-27 20:03:24	jogadores 'ceramisch' e 'renataramisch' ganharam <b>51</b> créditos com <b>'hotel'</b>.
2011-12-27 20:04:59	jogadores 'matbill' e 'renataramisch' ganharam <b>50</b> créditos com <b>'combustível'</b>. <img src="pics/JDM-bonus-dot2.gif">
2011-12-27 20:13:35	jogadores 'ceramisch' e 'renataramisch' ganharam <b>96</b> créditos com <b>'loja de venda'</b>. <img src="pics/JDM-bonus-dot2.gif">
2011-12-29 20:37:54	jogadores 'renataramisch' e 'freitas' ganharam <b>13</b> créditos com <b>'alain'</b>. <img src="pics/JDM-bonus-dot.gif">
2011-12-29 20:39:12	jogadores 'renataramisch' e 'freitas' ganharam <b>250</b> créditos com <b>'abocanhar'</b> \n\tpara a relação 'idéia associada'. Jackpot ! <img src="pics/JDM-bonus-dot.gif">
2011-12-29 20:39:12	O termo 'abocanhar' acaba de ser capturado.
2011-12-29 20:40:38	jogadores 'renataramisch' e 'freitas' ganharam <b>338</b> créditos com <b>'almôndega'</b> \n\tpara a relação 'idéia associada'. Jackpot ! <img src="pics/JDM-bonus-dot.gif">
2011-12-29 20:40:38	O termo 'almôndega' acaba de ser capturado.
2011-12-29 20:41:39	jogadores 'renataramisch' e 'freitas' ganharam <b>13</b> créditos com <b>'jung'</b>. <img src="pics/JDM-bonus-dot.gif">
2011-12-29 20:44:09	jogadores 'renataramisch' e 'freitas' ganharam <b>188</b> créditos com <b>'vender'</b>. <img src="pics/JDM-bonus-dot.gif">
2011-12-29 20:46:06	jogadores 'renataramisch' e 'freitas' ganharam <b>188</b> créditos com <b>'agressor'</b>. <img src="pics/JDM-bonus-dot.gif">
2011-12-29 20:48:15	jogadores 'renataramisch' e 'freitas' ganharam <b>63</b> créditos com <b>'alternativo'</b>. <img src="pics/JDM-bonus-dot.gif">
2011-12-29 20:49:28	jogadores 'ceramisch' e 'freitas' ganharam <b>146</b> créditos com <b>'suicídio'</b>.
2011-12-29 20:51:00	jogadores 'renataramisch' e 'freitas' ganharam <b>300</b> créditos com <b>'albanês'</b> \n\tpara a relação 'idéia associada'. Jackpot ! <img src="pics/JDM-bonus-dot.gif">
2011-12-29 20:51:00	O termo 'albanês' acaba de ser capturado.
2011-12-29 20:53:02	jogador 'freitas' investiu em <b>'escroto'</b>.
2011-12-29 20:54:32	jogador 'freitas' investiu em <b>'vampiro'</b>.
2011-12-29 20:58:58	jogadores 'renataramisch' e 'freitas' ganharam <b>293</b> créditos com <b>'copo'</b> \n\tpara a relação 'genérico'. Jackpot ! <img src="pics/JDM-bonus-dot2.gif">
2011-12-29 20:58:58	O termo 'copo' acaba de ser capturado.
2011-12-29 21:02:04	jogadores 'renataramisch' e 'freitas' ganharam <b>47</b> créditos com <b>'peça'</b>. <img src="pics/JDM-bonus-dot2.gif">
2011-12-29 21:03:33	jogadores 'renataramisch' e 'freitas' ganharam <b>157</b> créditos com <b>'fazenda'</b>. <img src="pics/JDM-bonus-dot2.gif">
2011-12-30 00:37:48	boas vindas a 'MatheusLin' que acabou de se registrar.
2011-12-30 01:13:25	jogador 'renataramisch' comprou uma competência.
2011-12-30 01:19:18	jogadores 'freitas' e 'renataramisch' ganharam <b>72</b> créditos com <b>'moda'</b>. <img src="pics/JDM-bonus-dot2.gif">
2011-12-30 01:20:50	jogadores 'ceramisch' e 'renataramisch' ganharam <b>170</b> créditos com <b>'peixe'</b>. <img src="pics/JDM-bonus-dot2.gif">
2011-12-30 01:34:30	jogadores 'freitas' e 'MatheusLin' ganharam <b>125</b> créditos com <b>'pedir'</b>.
2011-12-30 01:34:42	jogadores 'freitas' e 'renataramisch' ganharam <b>213</b> créditos com <b>'amizade'</b> \n\tpara a relação 'idéia associada'. Jackpot ! <img src="pics/JDM-bonus-dot.gif">
2011-12-30 01:34:42	jogadores 'ceramisch' e 'renataramisch' ganharam 9331 na loteria e compartilharam o prêmio... e ajudaram os demais jogadores.
2011-12-30 01:35:53	jogadores 'freitas' e 'renataramisch' ganharam <b>275</b> créditos com <b>'escroto'</b> \n\tpara a relação 'idéia associada'. Jackpot ! <img src="pics/JDM-bonus-dot.gif">
2011-12-30 01:35:53	O termo 'escroto' acaba de ser capturado.
2011-12-30 01:39:30	jogadores 'tpeninha' e 'MatheusLin' ganharam <b>118</b> créditos com <b>'redor'</b>.
2011-12-30 01:41:06	renataramisch ajudou a alcançar a marca de 100 relações. Bravo ! + 20 Honra
2011-12-30 01:41:06	jogadores 'freitas' e 'renataramisch' ganharam <b>220</b> créditos com <b>'ser'</b> \n\tpara a relação 'específico'. Jackpot ! <img src="pics/JDM-bonus-dot2.gif">
2011-12-30 01:41:33	jogador 'renataramisch' invocou uma palavra...
2011-12-30 01:42:41	jogadores 'ceramisch' e 'renataramisch' ganharam <b>85</b> créditos com <b>'leito'</b>. <img src="pics/JDM-bonus-dot2.gif">
2011-12-30 01:44:00	jogadores 'ceramisch' e 'renataramisch' ganharam <b>82</b> créditos com <b>'mulher'</b>.
2011-12-30 01:57:46	jogadores 'renataramisch' e 'MatheusLin' ganharam <b>62</b> créditos com <b>'abocanhar'</b>.
2011-12-30 02:01:21	jogadores 'MatheusLin' e 'renataramisch' ganharam <b>150</b> créditos com <b>'biblioteca de direito'</b>. <img src="pics/JDM-bonus-dot.gif">
2011-12-30 02:08:40	jogadores 'renataramisch' e 'freitas' ganharam <b>188</b> créditos com <b>'mentira'</b>. <img src="pics/JDM-bonus-dot.gif">
2011-12-30 02:10:02	jogadores 'renataramisch' e 'freitas' ganharam <b>313</b> créditos com <b>'artista de cinema'</b> \n\tpara a relação 'idéia associada'. Jackpot ! <img src="pics/JDM-bonus-dot.gif">
2011-12-30 02:10:02	O termo 'artista de cinema' acaba de ser capturado.
2011-12-30 02:11:34	jogadores 'renataramisch' e 'freitas' ganharam <b>125</b> créditos com <b>'consultado'</b>. <img src="pics/JDM-bonus-dot.gif">
2011-12-30 02:13:07	jogadores 'MatheusLin' e 'freitas' ganharam <b>182</b> créditos com <b>'biblioteca de direito'</b>.
2011-12-30 02:14:30	jogadores 'renataramisch' e 'freitas' ganharam <b>400</b> créditos com <b>'nicolau'</b> \n\tpara a relação 'idéia associada'. Jackpot ! <img src="pics/JDM-bonus-dot.gif">
2011-12-30 02:14:30	O termo 'nicolau' acaba de ser capturado.
2011-12-30 02:14:42	jogadores 'guest' e 'MatheusLin' ganharam <b>59</b> créditos com <b>'fabricação'</b>.
2011-12-30 02:16:07	jogadores 'renataramisch' e 'freitas' ganharam <b>188</b> créditos com <b>'achegar'</b>. <img src="pics/JDM-bonus-dot.gif">
2011-12-30 02:17:28	jogadores 'renataramisch' e 'freitas' ganharam <b>213</b> créditos com <b>'sustentar'</b> \n\tpara a relação 'idéia associada'. Jackpot ! <img src="pics/JDM-bonus-dot.gif">
2011-12-30 02:18:49	jogadores 'renataramisch' e 'freitas' ganharam <b>125</b> créditos com <b>'abençoar'</b>. <img src="pics/JDM-bonus-dot.gif">
2011-12-30 02:23:51	jogadores 'freitas' e 'MatheusLin' ganharam <b>122</b> créditos com <b>'amizade'</b>.
2011-12-30 02:25:38	jogadores 'renataramisch' e 'MatheusLin' ganharam <b>332</b> créditos com <b>'sustentar'</b> \n\tpara a relação 'idéia associada'. Jackpot !
2011-12-30 02:25:38	O termo 'sustentar' acaba de ser capturado.
2011-12-30 02:27:19	jogadores 'freitas' e 'MatheusLin' ganharam <b>57</b> créditos com <b>'ignorante'</b>.
2011-12-30 02:27:20	jogadores 'freitas' e 'renataramisch' ganharam <b>63</b> créditos com <b>'acreditar'</b>. <img src="pics/JDM-bonus-dot.gif">
2011-12-30 02:28:42	jogadores 'freitas' e 'renataramisch' ganharam <b>150</b> créditos com <b>'não encher saco'</b>. <img src="pics/JDM-bonus-dot.gif">
2011-12-30 02:31:39	jogadores 'guest' e 'MatheusLin' ganharam <b>56</b> créditos com <b>'calçada'</b>.
2011-12-30 02:36:25	jogadores 'freitas' e 'MatheusLin' ganharam <b>250</b> créditos com <b>'acreditar'</b> \n\tpara a relação 'idéia associada'. Jackpot !
2011-12-30 02:36:25	O termo 'acreditar' acaba de ser capturado.
2011-12-30 02:37:40	jogador 'freitas' comprou uma competência.
2011-12-30 02:39:34	jogadores 'renataramisch' e 'MatheusLin' ganharam <b>122</b> créditos com <b>'vender'</b>.
2011-12-30 02:40:37	jogadores 'renataramisch' e 'freitas' ganharam <b>250</b> créditos com <b>'europa'</b> \n\tpara a relação 'idéia associada'. Jackpot ! <img src="pics/JDM-bonus-dot.gif">
2011-12-30 02:40:37	O termo 'europa' acaba de ser capturado.
2011-12-30 02:41:56	jogadores 'renataramisch' e 'freitas' ganharam <b>275</b> créditos com <b>'vender brinquedo'</b> \n\tpara a relação 'idéia associada'. Jackpot ! <img src="pics/JDM-bonus-dot.gif">
2011-12-30 02:41:56	O termo 'vender brinquedo' acaba de ser capturado.
2011-12-30 02:45:46	jogadores 'matbill' e 'freitas' ganharam <b>107</b> créditos com <b>'mesa com docinhos'</b>. <img src="pics/JDM-bonus-dot2.gif">
2011-12-30 02:48:48	jogadores 'guest' e 'MatheusLin' ganharam <b>115</b> créditos com <b>'pássaro'</b>.
2011-12-30 02:57:07	jogadores 'renataramisch' e 'freitas' ganharam <b>33</b> créditos com <b>'não usar camisa'</b>. <img src="pics/JDM-bonus-dot2.gif">
2011-12-30 02:59:00	jogadores 'freitas' e 'MatheusLin' ganharam <b>60</b> créditos com <b>'amor'</b>.
2011-12-30 03:01:23	jogadores 'ceramisch' e 'freitas' ganharam <b>21</b> créditos com <b>'invitar'</b>. <img src="pics/JDM-bonus-dot2.gif">
2011-12-30 03:04:44	jogadores 'renataramisch' e 'freitas' ganharam <b>66</b> créditos com <b>'matéria'</b>. <img src="pics/JDM-bonus-dot2.gif">
2011-12-30 03:05:42	jogadores 'renataramisch' e 'MatheusLin' ganharam <b>60</b> créditos com <b>'mentira'</b>.
2011-12-30 03:06:04	jogadores 'matbill' e 'freitas' ganharam <b>65</b> créditos com <b>'cachaça'</b>. <img src="pics/JDM-bonus-dot2.gif">
2011-12-30 03:08:54	jogadores 'renataramisch' e 'freitas' ganharam <b>128</b> créditos com <b>'pincel'</b>. <img src="pics/JDM-bonus-dot2.gif">
2011-12-30 03:12:53	jogadores 'matbill' e 'freitas' ganharam <b>123</b> créditos com <b>'hotel'</b>. <img src="pics/JDM-bonus-dot2.gif">
2011-12-30 03:13:57	jogadores 'renataramisch' e 'freitas' ganharam <b>121</b> créditos com <b>'casa'</b>. <img src="pics/JDM-bonus-dot2.gif">
2011-12-30 03:22:00	jogadores 'MatheusLin' e 'renataramisch' ganharam <b>125</b> créditos com <b>'internacional'</b>. <img src="pics/JDM-bonus-dot.gif">
2011-12-30 03:24:14	jogadores 'renataramisch' e 'MatheusLin' ganharam <b>62</b> créditos com <b>'agravante'</b>.
2011-12-30 03:25:29	jogadores 'freitas' e 'MatheusLin' ganharam <b>63</b> créditos com <b>'não encher saco'</b>.
2011-12-30 03:26:53	jogadores 'freitas' e 'renataramisch' ganharam <b>108</b> créditos com <b>'matemática'</b>. <img src="pics/JDM-bonus-dot2.gif">
2011-12-30 03:35:17	jogadores 'MatheusLin' e 'renataramisch' ganharam <b>275</b> créditos com <b>'rodo'</b> \n\tpara a relação 'idéia associada'. Jackpot ! <img src="pics/JDM-bonus-dot.gif">
2011-12-30 03:35:17	O termo 'rodo' acaba de ser capturado.
